EESchema Schematic File Version 2
LIBS:power
LIBS:device
LIBS:switches
LIBS:relays
LIBS:motors
LIBS:transistors
LIBS:conn
LIBS:linear
LIBS:regul
LIBS:74xx
LIBS:cmos4000
LIBS:adc-dac
LIBS:memory
LIBS:xilinx
LIBS:microcontrollers
LIBS:dsp
LIBS:microchip
LIBS:analog_switches
LIBS:motorola
LIBS:texas
LIBS:intel
LIBS:audio
LIBS:interface
LIBS:digital-audio
LIBS:philips
LIBS:display
LIBS:cypress
LIBS:siliconi
LIBS:opto
LIBS:atmel
LIBS:contrib
LIBS:valves
LIBS:myparts
LIBS:niklas-cache
EELAYER 25 0
EELAYER END
$Descr A4 11693 8268
encoding utf-8
Sheet 2 5
Title ""
Date ""
Rev ""
Comp ""
Comment1 ""
Comment2 ""
Comment3 ""
Comment4 ""
$EndDescr
$Comp
L GND #PWR019
U 1 1 5B3DCF1F
P 3750 3200
AR Path="/5B3DA66F/5B3DCF1F" Ref="#PWR019"  Part="1" 
AR Path="/5B3E98F7/5B3DCF1F" Ref="#PWR085"  Part="1" 
AR Path="/5B3EA160/5B3DCF1F" Ref="#PWR063"  Part="1" 
AR Path="/5B3EA857/5B3DCF1F" Ref="#PWR041"  Part="1" 
F 0 "#PWR085" H 3750 2950 50  0001 C CNN
F 1 "GND" H 3750 3050 50  0000 C CNN
F 2 "" H 3750 3200 50  0001 C CNN
F 3 "" H 3750 3200 50  0001 C CNN
	1    3750 3200
	1    0    0    -1  
$EndComp
$Comp
L TLC59282 IC1
U 1 1 5B3DCF25
P 4950 3700
AR Path="/5B3DA66F/5B3DCF25" Ref="IC1"  Part="1" 
AR Path="/5B3E98F7/5B3DCF25" Ref="IC2"  Part="1" 
AR Path="/5B3EA160/5B3DCF25" Ref="IC3"  Part="1" 
AR Path="/5B3EA857/5B3DCF25" Ref="IC4"  Part="1" 
F 0 "IC1" H 4950 3000 60  0000 C CNN
F 1 "TLC59282" H 4900 4300 60  0000 C CNN
F 2 "Housings_SSOP:QSOP-24_3.9x8.7mm_Pitch0.635mm" H 4600 4350 60  0001 C CNN
F 3 "" H 4600 4350 60  0001 C CNN
	1    4950 3700
	1    0    0    -1  
$EndComp
$Comp
L LED D1
U 1 1 5B3DCF2C
P 7900 2700
AR Path="/5B3DA66F/5B3DCF2C" Ref="D1"  Part="1" 
AR Path="/5B3E98F7/5B3DCF2C" Ref="D17"  Part="1" 
AR Path="/5B3EA160/5B3DCF2C" Ref="D33"  Part="1" 
AR Path="/5B3EA857/5B3DCF2C" Ref="D49"  Part="1" 
F 0 "D1" H 7900 2800 50  0000 C CNN
F 1 "LED" H 7900 2600 50  0000 C CNN
F 2 "LEDs:LED_1206_HandSoldering" H 7900 2700 50  0001 C CNN
F 3 "" H 7900 2700 50  0001 C CNN
	1    7900 2700
	-1   0    0    1   
$EndComp
$Comp
L LED D2
U 1 1 5B3DCF4A
P 7900 3000
AR Path="/5B3DA66F/5B3DCF4A" Ref="D2"  Part="1" 
AR Path="/5B3E98F7/5B3DCF4A" Ref="D18"  Part="1" 
AR Path="/5B3EA160/5B3DCF4A" Ref="D34"  Part="1" 
AR Path="/5B3EA857/5B3DCF4A" Ref="D50"  Part="1" 
F 0 "D2" H 7900 3100 50  0000 C CNN
F 1 "LED" H 7900 2900 50  0000 C CNN
F 2 "LEDs:LED_1206_HandSoldering" H 7900 3000 50  0001 C CNN
F 3 "" H 7900 3000 50  0001 C CNN
	1    7900 3000
	-1   0    0    1   
$EndComp
$Comp
L LED D3
U 1 1 5B3DCF58
P 7900 3300
AR Path="/5B3DA66F/5B3DCF58" Ref="D3"  Part="1" 
AR Path="/5B3E98F7/5B3DCF58" Ref="D19"  Part="1" 
AR Path="/5B3EA160/5B3DCF58" Ref="D35"  Part="1" 
AR Path="/5B3EA857/5B3DCF58" Ref="D51"  Part="1" 
F 0 "D3" H 7900 3400 50  0000 C CNN
F 1 "LED" H 7900 3200 50  0000 C CNN
F 2 "LEDs:LED_1206_HandSoldering" H 7900 3300 50  0001 C CNN
F 3 "" H 7900 3300 50  0001 C CNN
	1    7900 3300
	-1   0    0    1   
$EndComp
$Comp
L LED D4
U 1 1 5B3DCF66
P 7900 3600
AR Path="/5B3DA66F/5B3DCF66" Ref="D4"  Part="1" 
AR Path="/5B3E98F7/5B3DCF66" Ref="D20"  Part="1" 
AR Path="/5B3EA160/5B3DCF66" Ref="D36"  Part="1" 
AR Path="/5B3EA857/5B3DCF66" Ref="D52"  Part="1" 
F 0 "D4" H 7900 3700 50  0000 C CNN
F 1 "LED" H 7900 3500 50  0000 C CNN
F 2 "LEDs:LED_1206_HandSoldering" H 7900 3600 50  0001 C CNN
F 3 "" H 7900 3600 50  0001 C CNN
	1    7900 3600
	-1   0    0    1   
$EndComp
$Comp
L LED D5
U 1 1 5B3DCF74
P 7900 3900
AR Path="/5B3DA66F/5B3DCF74" Ref="D5"  Part="1" 
AR Path="/5B3E98F7/5B3DCF74" Ref="D21"  Part="1" 
AR Path="/5B3EA160/5B3DCF74" Ref="D37"  Part="1" 
AR Path="/5B3EA857/5B3DCF74" Ref="D53"  Part="1" 
F 0 "D5" H 7900 4000 50  0000 C CNN
F 1 "LED" H 7900 3800 50  0000 C CNN
F 2 "LEDs:LED_1206_HandSoldering" H 7900 3900 50  0001 C CNN
F 3 "" H 7900 3900 50  0001 C CNN
	1    7900 3900
	-1   0    0    1   
$EndComp
$Comp
L LED D6
U 1 1 5B3DCF82
P 7900 4200
AR Path="/5B3DA66F/5B3DCF82" Ref="D6"  Part="1" 
AR Path="/5B3E98F7/5B3DCF82" Ref="D22"  Part="1" 
AR Path="/5B3EA160/5B3DCF82" Ref="D38"  Part="1" 
AR Path="/5B3EA857/5B3DCF82" Ref="D54"  Part="1" 
F 0 "D6" H 7900 4300 50  0000 C CNN
F 1 "LED" H 7900 4100 50  0000 C CNN
F 2 "LEDs:LED_1206_HandSoldering" H 7900 4200 50  0001 C CNN
F 3 "" H 7900 4200 50  0001 C CNN
	1    7900 4200
	-1   0    0    1   
$EndComp
$Comp
L LED D7
U 1 1 5B3DCF90
P 7900 4500
AR Path="/5B3DA66F/5B3DCF90" Ref="D7"  Part="1" 
AR Path="/5B3E98F7/5B3DCF90" Ref="D23"  Part="1" 
AR Path="/5B3EA160/5B3DCF90" Ref="D39"  Part="1" 
AR Path="/5B3EA857/5B3DCF90" Ref="D55"  Part="1" 
F 0 "D7" H 7900 4600 50  0000 C CNN
F 1 "LED" H 7900 4400 50  0000 C CNN
F 2 "LEDs:LED_1206_HandSoldering" H 7900 4500 50  0001 C CNN
F 3 "" H 7900 4500 50  0001 C CNN
	1    7900 4500
	-1   0    0    1   
$EndComp
$Comp
L LED D8
U 1 1 5B3DCF9E
P 7900 4800
AR Path="/5B3DA66F/5B3DCF9E" Ref="D8"  Part="1" 
AR Path="/5B3E98F7/5B3DCF9E" Ref="D24"  Part="1" 
AR Path="/5B3EA160/5B3DCF9E" Ref="D40"  Part="1" 
AR Path="/5B3EA857/5B3DCF9E" Ref="D56"  Part="1" 
F 0 "D8" H 7900 4900 50  0000 C CNN
F 1 "LED" H 7900 4700 50  0000 C CNN
F 2 "LEDs:LED_1206_HandSoldering" H 7900 4800 50  0001 C CNN
F 3 "" H 7900 4800 50  0001 C CNN
	1    7900 4800
	-1   0    0    1   
$EndComp
$Comp
L LED D9
U 1 1 5B3DCFAC
P 9450 2700
AR Path="/5B3DA66F/5B3DCFAC" Ref="D9"  Part="1" 
AR Path="/5B3E98F7/5B3DCFAC" Ref="D25"  Part="1" 
AR Path="/5B3EA160/5B3DCFAC" Ref="D41"  Part="1" 
AR Path="/5B3EA857/5B3DCFAC" Ref="D57"  Part="1" 
F 0 "D9" H 9450 2800 50  0000 C CNN
F 1 "LED" H 9450 2600 50  0000 C CNN
F 2 "LEDs:LED_1206_HandSoldering" H 9450 2700 50  0001 C CNN
F 3 "" H 9450 2700 50  0001 C CNN
	1    9450 2700
	-1   0    0    1   
$EndComp
$Comp
L LED D10
U 1 1 5B3DCFBA
P 9450 3000
AR Path="/5B3DA66F/5B3DCFBA" Ref="D10"  Part="1" 
AR Path="/5B3E98F7/5B3DCFBA" Ref="D26"  Part="1" 
AR Path="/5B3EA160/5B3DCFBA" Ref="D42"  Part="1" 
AR Path="/5B3EA857/5B3DCFBA" Ref="D58"  Part="1" 
F 0 "D10" H 9450 3100 50  0000 C CNN
F 1 "LED" H 9450 2900 50  0000 C CNN
F 2 "LEDs:LED_1206_HandSoldering" H 9450 3000 50  0001 C CNN
F 3 "" H 9450 3000 50  0001 C CNN
	1    9450 3000
	-1   0    0    1   
$EndComp
$Comp
L LED D11
U 1 1 5B3DCFC8
P 9450 3300
AR Path="/5B3DA66F/5B3DCFC8" Ref="D11"  Part="1" 
AR Path="/5B3E98F7/5B3DCFC8" Ref="D27"  Part="1" 
AR Path="/5B3EA160/5B3DCFC8" Ref="D43"  Part="1" 
AR Path="/5B3EA857/5B3DCFC8" Ref="D59"  Part="1" 
F 0 "D11" H 9450 3400 50  0000 C CNN
F 1 "LED" H 9450 3200 50  0000 C CNN
F 2 "LEDs:LED_1206_HandSoldering" H 9450 3300 50  0001 C CNN
F 3 "" H 9450 3300 50  0001 C CNN
	1    9450 3300
	-1   0    0    1   
$EndComp
$Comp
L LED D12
U 1 1 5B3DCFD6
P 9450 3600
AR Path="/5B3DA66F/5B3DCFD6" Ref="D12"  Part="1" 
AR Path="/5B3E98F7/5B3DCFD6" Ref="D28"  Part="1" 
AR Path="/5B3EA160/5B3DCFD6" Ref="D44"  Part="1" 
AR Path="/5B3EA857/5B3DCFD6" Ref="D60"  Part="1" 
F 0 "D12" H 9450 3700 50  0000 C CNN
F 1 "LED" H 9450 3500 50  0000 C CNN
F 2 "LEDs:LED_1206_HandSoldering" H 9450 3600 50  0001 C CNN
F 3 "" H 9450 3600 50  0001 C CNN
	1    9450 3600
	-1   0    0    1   
$EndComp
$Comp
L LED D13
U 1 1 5B3DCFE4
P 9450 3900
AR Path="/5B3DA66F/5B3DCFE4" Ref="D13"  Part="1" 
AR Path="/5B3E98F7/5B3DCFE4" Ref="D29"  Part="1" 
AR Path="/5B3EA160/5B3DCFE4" Ref="D45"  Part="1" 
AR Path="/5B3EA857/5B3DCFE4" Ref="D61"  Part="1" 
F 0 "D13" H 9450 4000 50  0000 C CNN
F 1 "LED" H 9450 3800 50  0000 C CNN
F 2 "LEDs:LED_1206_HandSoldering" H 9450 3900 50  0001 C CNN
F 3 "" H 9450 3900 50  0001 C CNN
	1    9450 3900
	-1   0    0    1   
$EndComp
$Comp
L LED D14
U 1 1 5B3DCFF2
P 9450 4200
AR Path="/5B3DA66F/5B3DCFF2" Ref="D14"  Part="1" 
AR Path="/5B3E98F7/5B3DCFF2" Ref="D30"  Part="1" 
AR Path="/5B3EA160/5B3DCFF2" Ref="D46"  Part="1" 
AR Path="/5B3EA857/5B3DCFF2" Ref="D62"  Part="1" 
F 0 "D14" H 9450 4300 50  0000 C CNN
F 1 "LED" H 9450 4100 50  0000 C CNN
F 2 "LEDs:LED_1206_HandSoldering" H 9450 4200 50  0001 C CNN
F 3 "" H 9450 4200 50  0001 C CNN
	1    9450 4200
	-1   0    0    1   
$EndComp
$Comp
L LED D15
U 1 1 5B3DD000
P 9450 4500
AR Path="/5B3DA66F/5B3DD000" Ref="D15"  Part="1" 
AR Path="/5B3E98F7/5B3DD000" Ref="D31"  Part="1" 
AR Path="/5B3EA160/5B3DD000" Ref="D47"  Part="1" 
AR Path="/5B3EA857/5B3DD000" Ref="D63"  Part="1" 
F 0 "D15" H 9450 4600 50  0000 C CNN
F 1 "LED" H 9450 4400 50  0000 C CNN
F 2 "LEDs:LED_1206_HandSoldering" H 9450 4500 50  0001 C CNN
F 3 "" H 9450 4500 50  0001 C CNN
	1    9450 4500
	-1   0    0    1   
$EndComp
$Comp
L LED D16
U 1 1 5B3DD00E
P 9450 4800
AR Path="/5B3DA66F/5B3DD00E" Ref="D16"  Part="1" 
AR Path="/5B3E98F7/5B3DD00E" Ref="D32"  Part="1" 
AR Path="/5B3EA160/5B3DD00E" Ref="D48"  Part="1" 
AR Path="/5B3EA857/5B3DD00E" Ref="D64"  Part="1" 
F 0 "D16" H 9450 4900 50  0000 C CNN
F 1 "LED" H 9450 4700 50  0000 C CNN
F 2 "LEDs:LED_1206_HandSoldering" H 9450 4800 50  0001 C CNN
F 3 "" H 9450 4800 50  0001 C CNN
	1    9450 4800
	-1   0    0    1   
$EndComp
$Comp
L GND #PWR020
U 1 1 5B3DD01C
P 6450 3300
AR Path="/5B3DA66F/5B3DD01C" Ref="#PWR020"  Part="1" 
AR Path="/5B3E98F7/5B3DD01C" Ref="#PWR086"  Part="1" 
AR Path="/5B3EA160/5B3DD01C" Ref="#PWR064"  Part="1" 
AR Path="/5B3EA857/5B3DD01C" Ref="#PWR042"  Part="1" 
F 0 "#PWR086" H 6450 3050 50  0001 C CNN
F 1 "GND" H 6450 3150 50  0000 C CNN
F 2 "" H 6450 3300 50  0001 C CNN
F 3 "" H 6450 3300 50  0001 C CNN
	1    6450 3300
	1    0    0    -1  
$EndComp
Text Label 4400 3400 2    60   ~ 0
sclk
Text Label 4400 3500 2    60   ~ 0
lat
Text Label 5450 3500 0    60   ~ 0
blank
Text Label 5450 3400 0    60   ~ 0
sout
Text Label 4400 3300 2    60   ~ 0
sin
$Comp
L C C1
U 1 1 5B3DD027
P 4900 2650
AR Path="/5B3DA66F/5B3DD027" Ref="C1"  Part="1" 
AR Path="/5B3E98F7/5B3DD027" Ref="C2"  Part="1" 
AR Path="/5B3EA160/5B3DD027" Ref="C3"  Part="1" 
AR Path="/5B3EA857/5B3DD027" Ref="C4"  Part="1" 
F 0 "C1" H 4925 2750 50  0000 L CNN
F 1 "C" H 4925 2550 50  0000 L CNN
F 2 "Capacitors_SMD:C_1206_HandSoldering" H 4938 2500 50  0001 C CNN
F 3 "" H 4900 2650 50  0001 C CNN
	1    4900 2650
	0    1    1    0   
$EndComp
Wire Wire Line
	3750 3200 4400 3200
Wire Wire Line
	5450 3200 5700 3200
Wire Wire Line
	5050 2650 5450 2650
Wire Wire Line
	5450 2650 5450 3200
Wire Wire Line
	4750 2650 4400 2650
Wire Wire Line
	4400 2650 4400 3200
Text Label 4400 3600 2    60   ~ 0
OUT0
Text Label 4400 3700 2    60   ~ 0
OUT1
Text Label 4400 3800 2    60   ~ 0
OUT2
Text Label 4400 3900 2    60   ~ 0
OUT3
Text Label 4400 4000 2    60   ~ 0
OUT4
Text Label 4400 4100 2    60   ~ 0
OUT5
Text Label 4400 4200 2    60   ~ 0
OUT6
Text Label 4400 4300 2    60   ~ 0
OUT7
Text Label 5450 4300 0    60   ~ 0
OUT8
Text Label 5450 4200 0    60   ~ 0
OUT9
Text Label 5450 4100 0    60   ~ 0
OUT10
Text Label 5450 4000 0    60   ~ 0
OUT11
Text Label 5450 3900 0    60   ~ 0
OUT12
Text Label 5450 3800 0    60   ~ 0
OUT13
Text Label 5450 3700 0    60   ~ 0
OUT14
Text Label 5450 3600 0    60   ~ 0
OUT15
Text Label 8050 2700 0    60   ~ 0
OUT0
Text Label 8050 3000 0    60   ~ 0
OUT1
Text Label 8050 3300 0    60   ~ 0
OUT2
Text Label 8050 3600 0    60   ~ 0
OUT3
Text Label 8050 3900 0    60   ~ 0
OUT4
Text Label 8050 4200 0    60   ~ 0
OUT5
Text Label 8050 4500 0    60   ~ 0
OUT6
Text Label 8050 4800 0    60   ~ 0
OUT7
Text Label 9600 2700 0    60   ~ 0
OUT8
Text Label 9600 3000 0    60   ~ 0
OUT9
Text Label 9600 3300 0    60   ~ 0
OUT10
Text Label 9600 3600 0    60   ~ 0
OUT11
Text Label 9600 3900 0    60   ~ 0
OUT12
Text Label 9600 4200 0    60   ~ 0
OUT13
Text Label 9600 4500 0    60   ~ 0
OUT14
Text Label 9600 4800 0    60   ~ 0
OUT15
$Comp
L R R1
U 1 1 5B3DE9DA
P 5850 3300
AR Path="/5B3DA66F/5B3DE9DA" Ref="R1"  Part="1" 
AR Path="/5B3E98F7/5B3DE9DA" Ref="R3"  Part="1" 
AR Path="/5B3EA160/5B3DE9DA" Ref="R5"  Part="1" 
AR Path="/5B3EA857/5B3DE9DA" Ref="R7"  Part="1" 
F 0 "R1" V 5930 3300 50  0000 C CNN
F 1 "R1k" V 5850 3300 50  0000 C CNN
F 2 "Resistors_SMD:R_0603_HandSoldering" V 5780 3300 50  0001 C CNN
F 3 "" H 5850 3300 50  0001 C CNN
	1    5850 3300
	0    1    -1   0   
$EndComp
Wire Wire Line
	6350 3300 6450 3300
Text HLabel 2200 2800 0    60   Input ~ 0
3.3V
Text HLabel 2200 3100 0    60   Input ~ 0
GND
Text HLabel 2200 3700 0    60   Input ~ 0
SIN
Text HLabel 2200 4000 0    60   Input ~ 0
LAT
Text HLabel 2200 4300 0    60   Input ~ 0
BLANK
Text HLabel 2200 4650 0    60   Output ~ 0
SOUT
$Comp
L +3.3V #PWR021
U 1 1 5B3DF502
P 5700 3200
AR Path="/5B3DA66F/5B3DF502" Ref="#PWR021"  Part="1" 
AR Path="/5B3E98F7/5B3DF502" Ref="#PWR087"  Part="1" 
AR Path="/5B3EA160/5B3DF502" Ref="#PWR065"  Part="1" 
AR Path="/5B3EA857/5B3DF502" Ref="#PWR043"  Part="1" 
F 0 "#PWR087" H 5700 3050 50  0001 C CNN
F 1 "+3.3V" H 5700 3340 50  0000 C CNN
F 2 "" H 5700 3200 50  0001 C CNN
F 3 "" H 5700 3200 50  0001 C CNN
	1    5700 3200
	1    0    0    -1  
$EndComp
$Comp
L +3.3V #PWR022
U 1 1 5B3DF579
P 2400 2800
AR Path="/5B3DA66F/5B3DF579" Ref="#PWR022"  Part="1" 
AR Path="/5B3E98F7/5B3DF579" Ref="#PWR088"  Part="1" 
AR Path="/5B3EA160/5B3DF579" Ref="#PWR066"  Part="1" 
AR Path="/5B3EA857/5B3DF579" Ref="#PWR044"  Part="1" 
F 0 "#PWR088" H 2400 2650 50  0001 C CNN
F 1 "+3.3V" H 2400 2940 50  0000 C CNN
F 2 "" H 2400 2800 50  0001 C CNN
F 3 "" H 2400 2800 50  0001 C CNN
	1    2400 2800
	1    0    0    -1  
$EndComp
Wire Wire Line
	2200 2800 2400 2800
$Comp
L GND #PWR023
U 1 1 5B3DF5E1
P 2400 3100
AR Path="/5B3DA66F/5B3DF5E1" Ref="#PWR023"  Part="1" 
AR Path="/5B3E98F7/5B3DF5E1" Ref="#PWR089"  Part="1" 
AR Path="/5B3EA160/5B3DF5E1" Ref="#PWR067"  Part="1" 
AR Path="/5B3EA857/5B3DF5E1" Ref="#PWR045"  Part="1" 
F 0 "#PWR089" H 2400 2850 50  0001 C CNN
F 1 "GND" H 2400 2950 50  0000 C CNN
F 2 "" H 2400 3100 50  0001 C CNN
F 3 "" H 2400 3100 50  0001 C CNN
	1    2400 3100
	1    0    0    -1  
$EndComp
Wire Wire Line
	2200 3100 2400 3100
Text Label 2200 3700 0    60   ~ 0
sin
Text Label 2200 4000 0    60   ~ 0
lat
Text Label 2200 4300 0    60   ~ 0
blank
Text Label 2200 4650 0    60   ~ 0
sout
Text HLabel 2200 3400 0    60   Input ~ 0
SCLK
Text Label 2200 3400 0    60   ~ 0
sclk
Wire Wire Line
	5450 3300 5700 3300
Wire Wire Line
	6000 3300 6050 3300
$Comp
L R R2
U 1 1 5B3F5F99
P 6200 3300
AR Path="/5B3DA66F/5B3F5F99" Ref="R2"  Part="1" 
AR Path="/5B3E98F7/5B3F5F99" Ref="R4"  Part="1" 
AR Path="/5B3EA160/5B3F5F99" Ref="R6"  Part="1" 
AR Path="/5B3EA857/5B3F5F99" Ref="R8"  Part="1" 
F 0 "R2" V 6280 3300 50  0000 C CNN
F 1 "R1k" V 6200 3300 50  0000 C CNN
F 2 "Resistors_SMD:R_0603_HandSoldering" V 6130 3300 50  0001 C CNN
F 3 "" H 6200 3300 50  0001 C CNN
	1    6200 3300
	0    1    -1   0   
$EndComp
$Comp
L +5V #PWR024
U 1 1 5B3F58A9
P 7650 2700
AR Path="/5B3DA66F/5B3F58A9" Ref="#PWR024"  Part="1" 
AR Path="/5B3EA857/5B3F58A9" Ref="#PWR046"  Part="1" 
AR Path="/5B3EA160/5B3F58A9" Ref="#PWR068"  Part="1" 
AR Path="/5B3E98F7/5B3F58A9" Ref="#PWR090"  Part="1" 
F 0 "#PWR090" H 7650 2550 50  0001 C CNN
F 1 "+5V" H 7650 2840 50  0000 C CNN
F 2 "" H 7650 2700 50  0001 C CNN
F 3 "" H 7650 2700 50  0001 C CNN
	1    7650 2700
	-1   0    0    -1  
$EndComp
Wire Wire Line
	7750 2700 7650 2700
$Comp
L +5V #PWR025
U 1 1 5B3F5918
P 7650 3000
AR Path="/5B3DA66F/5B3F5918" Ref="#PWR025"  Part="1" 
AR Path="/5B3EA857/5B3F5918" Ref="#PWR047"  Part="1" 
AR Path="/5B3EA160/5B3F5918" Ref="#PWR069"  Part="1" 
AR Path="/5B3E98F7/5B3F5918" Ref="#PWR091"  Part="1" 
F 0 "#PWR091" H 7650 2850 50  0001 C CNN
F 1 "+5V" H 7650 3140 50  0000 C CNN
F 2 "" H 7650 3000 50  0001 C CNN
F 3 "" H 7650 3000 50  0001 C CNN
	1    7650 3000
	-1   0    0    -1  
$EndComp
$Comp
L +5V #PWR026
U 1 1 5B3F595F
P 7650 3300
AR Path="/5B3DA66F/5B3F595F" Ref="#PWR026"  Part="1" 
AR Path="/5B3EA857/5B3F595F" Ref="#PWR048"  Part="1" 
AR Path="/5B3EA160/5B3F595F" Ref="#PWR070"  Part="1" 
AR Path="/5B3E98F7/5B3F595F" Ref="#PWR092"  Part="1" 
F 0 "#PWR092" H 7650 3150 50  0001 C CNN
F 1 "+5V" H 7650 3440 50  0000 C CNN
F 2 "" H 7650 3300 50  0001 C CNN
F 3 "" H 7650 3300 50  0001 C CNN
	1    7650 3300
	-1   0    0    -1  
$EndComp
$Comp
L +5V #PWR027
U 1 1 5B3F59A6
P 7650 3600
AR Path="/5B3DA66F/5B3F59A6" Ref="#PWR027"  Part="1" 
AR Path="/5B3EA857/5B3F59A6" Ref="#PWR049"  Part="1" 
AR Path="/5B3EA160/5B3F59A6" Ref="#PWR071"  Part="1" 
AR Path="/5B3E98F7/5B3F59A6" Ref="#PWR093"  Part="1" 
F 0 "#PWR093" H 7650 3450 50  0001 C CNN
F 1 "+5V" H 7650 3740 50  0000 C CNN
F 2 "" H 7650 3600 50  0001 C CNN
F 3 "" H 7650 3600 50  0001 C CNN
	1    7650 3600
	-1   0    0    -1  
$EndComp
$Comp
L +5V #PWR028
U 1 1 5B3F59ED
P 7650 3900
AR Path="/5B3DA66F/5B3F59ED" Ref="#PWR028"  Part="1" 
AR Path="/5B3EA857/5B3F59ED" Ref="#PWR050"  Part="1" 
AR Path="/5B3EA160/5B3F59ED" Ref="#PWR072"  Part="1" 
AR Path="/5B3E98F7/5B3F59ED" Ref="#PWR094"  Part="1" 
F 0 "#PWR094" H 7650 3750 50  0001 C CNN
F 1 "+5V" H 7650 4040 50  0000 C CNN
F 2 "" H 7650 3900 50  0001 C CNN
F 3 "" H 7650 3900 50  0001 C CNN
	1    7650 3900
	-1   0    0    -1  
$EndComp
$Comp
L +5V #PWR029
U 1 1 5B3F5A34
P 7650 4200
AR Path="/5B3DA66F/5B3F5A34" Ref="#PWR029"  Part="1" 
AR Path="/5B3EA857/5B3F5A34" Ref="#PWR051"  Part="1" 
AR Path="/5B3EA160/5B3F5A34" Ref="#PWR073"  Part="1" 
AR Path="/5B3E98F7/5B3F5A34" Ref="#PWR095"  Part="1" 
F 0 "#PWR095" H 7650 4050 50  0001 C CNN
F 1 "+5V" H 7650 4340 50  0000 C CNN
F 2 "" H 7650 4200 50  0001 C CNN
F 3 "" H 7650 4200 50  0001 C CNN
	1    7650 4200
	-1   0    0    -1  
$EndComp
$Comp
L +5V #PWR030
U 1 1 5B3F5A7B
P 7650 4500
AR Path="/5B3DA66F/5B3F5A7B" Ref="#PWR030"  Part="1" 
AR Path="/5B3EA857/5B3F5A7B" Ref="#PWR052"  Part="1" 
AR Path="/5B3EA160/5B3F5A7B" Ref="#PWR074"  Part="1" 
AR Path="/5B3E98F7/5B3F5A7B" Ref="#PWR096"  Part="1" 
F 0 "#PWR096" H 7650 4350 50  0001 C CNN
F 1 "+5V" H 7650 4640 50  0000 C CNN
F 2 "" H 7650 4500 50  0001 C CNN
F 3 "" H 7650 4500 50  0001 C CNN
	1    7650 4500
	-1   0    0    -1  
$EndComp
$Comp
L +5V #PWR031
U 1 1 5B3F5B08
P 7650 4800
AR Path="/5B3DA66F/5B3F5B08" Ref="#PWR031"  Part="1" 
AR Path="/5B3EA857/5B3F5B08" Ref="#PWR053"  Part="1" 
AR Path="/5B3EA160/5B3F5B08" Ref="#PWR075"  Part="1" 
AR Path="/5B3E98F7/5B3F5B08" Ref="#PWR097"  Part="1" 
F 0 "#PWR097" H 7650 4650 50  0001 C CNN
F 1 "+5V" H 7650 4940 50  0000 C CNN
F 2 "" H 7650 4800 50  0001 C CNN
F 3 "" H 7650 4800 50  0001 C CNN
	1    7650 4800
	-1   0    0    -1  
$EndComp
$Comp
L +5V #PWR032
U 1 1 5B3F5B4F
P 9200 2700
AR Path="/5B3DA66F/5B3F5B4F" Ref="#PWR032"  Part="1" 
AR Path="/5B3EA857/5B3F5B4F" Ref="#PWR054"  Part="1" 
AR Path="/5B3EA160/5B3F5B4F" Ref="#PWR076"  Part="1" 
AR Path="/5B3E98F7/5B3F5B4F" Ref="#PWR098"  Part="1" 
F 0 "#PWR098" H 9200 2550 50  0001 C CNN
F 1 "+5V" H 9200 2840 50  0000 C CNN
F 2 "" H 9200 2700 50  0001 C CNN
F 3 "" H 9200 2700 50  0001 C CNN
	1    9200 2700
	-1   0    0    -1  
$EndComp
$Comp
L +5V #PWR033
U 1 1 5B3F5B96
P 9200 3000
AR Path="/5B3DA66F/5B3F5B96" Ref="#PWR033"  Part="1" 
AR Path="/5B3EA857/5B3F5B96" Ref="#PWR055"  Part="1" 
AR Path="/5B3EA160/5B3F5B96" Ref="#PWR077"  Part="1" 
AR Path="/5B3E98F7/5B3F5B96" Ref="#PWR099"  Part="1" 
F 0 "#PWR099" H 9200 2850 50  0001 C CNN
F 1 "+5V" H 9200 3140 50  0000 C CNN
F 2 "" H 9200 3000 50  0001 C CNN
F 3 "" H 9200 3000 50  0001 C CNN
	1    9200 3000
	-1   0    0    -1  
$EndComp
$Comp
L +5V #PWR034
U 1 1 5B3F5C23
P 9200 3300
AR Path="/5B3DA66F/5B3F5C23" Ref="#PWR034"  Part="1" 
AR Path="/5B3EA857/5B3F5C23" Ref="#PWR056"  Part="1" 
AR Path="/5B3EA160/5B3F5C23" Ref="#PWR078"  Part="1" 
AR Path="/5B3E98F7/5B3F5C23" Ref="#PWR0100"  Part="1" 
F 0 "#PWR0100" H 9200 3150 50  0001 C CNN
F 1 "+5V" H 9200 3440 50  0000 C CNN
F 2 "" H 9200 3300 50  0001 C CNN
F 3 "" H 9200 3300 50  0001 C CNN
	1    9200 3300
	-1   0    0    -1  
$EndComp
$Comp
L +5V #PWR035
U 1 1 5B3F5C6A
P 9200 3600
AR Path="/5B3DA66F/5B3F5C6A" Ref="#PWR035"  Part="1" 
AR Path="/5B3EA857/5B3F5C6A" Ref="#PWR057"  Part="1" 
AR Path="/5B3EA160/5B3F5C6A" Ref="#PWR079"  Part="1" 
AR Path="/5B3E98F7/5B3F5C6A" Ref="#PWR0101"  Part="1" 
F 0 "#PWR0101" H 9200 3450 50  0001 C CNN
F 1 "+5V" H 9200 3740 50  0000 C CNN
F 2 "" H 9200 3600 50  0001 C CNN
F 3 "" H 9200 3600 50  0001 C CNN
	1    9200 3600
	-1   0    0    -1  
$EndComp
$Comp
L +5V #PWR036
U 1 1 5B3F5CB1
P 9200 3900
AR Path="/5B3DA66F/5B3F5CB1" Ref="#PWR036"  Part="1" 
AR Path="/5B3EA857/5B3F5CB1" Ref="#PWR058"  Part="1" 
AR Path="/5B3EA160/5B3F5CB1" Ref="#PWR080"  Part="1" 
AR Path="/5B3E98F7/5B3F5CB1" Ref="#PWR0102"  Part="1" 
F 0 "#PWR0102" H 9200 3750 50  0001 C CNN
F 1 "+5V" H 9200 4040 50  0000 C CNN
F 2 "" H 9200 3900 50  0001 C CNN
F 3 "" H 9200 3900 50  0001 C CNN
	1    9200 3900
	-1   0    0    -1  
$EndComp
$Comp
L +5V #PWR037
U 1 1 5B3F5CF8
P 9200 4200
AR Path="/5B3DA66F/5B3F5CF8" Ref="#PWR037"  Part="1" 
AR Path="/5B3EA857/5B3F5CF8" Ref="#PWR059"  Part="1" 
AR Path="/5B3EA160/5B3F5CF8" Ref="#PWR081"  Part="1" 
AR Path="/5B3E98F7/5B3F5CF8" Ref="#PWR0103"  Part="1" 
F 0 "#PWR0103" H 9200 4050 50  0001 C CNN
F 1 "+5V" H 9200 4340 50  0000 C CNN
F 2 "" H 9200 4200 50  0001 C CNN
F 3 "" H 9200 4200 50  0001 C CNN
	1    9200 4200
	-1   0    0    -1  
$EndComp
$Comp
L +5V #PWR038
U 1 1 5B3F5D3F
P 9200 4500
AR Path="/5B3DA66F/5B3F5D3F" Ref="#PWR038"  Part="1" 
AR Path="/5B3EA857/5B3F5D3F" Ref="#PWR060"  Part="1" 
AR Path="/5B3EA160/5B3F5D3F" Ref="#PWR082"  Part="1" 
AR Path="/5B3E98F7/5B3F5D3F" Ref="#PWR0104"  Part="1" 
F 0 "#PWR0104" H 9200 4350 50  0001 C CNN
F 1 "+5V" H 9200 4640 50  0000 C CNN
F 2 "" H 9200 4500 50  0001 C CNN
F 3 "" H 9200 4500 50  0001 C CNN
	1    9200 4500
	-1   0    0    -1  
$EndComp
$Comp
L +5V #PWR039
U 1 1 5B3F5D86
P 9200 4800
AR Path="/5B3DA66F/5B3F5D86" Ref="#PWR039"  Part="1" 
AR Path="/5B3EA857/5B3F5D86" Ref="#PWR061"  Part="1" 
AR Path="/5B3EA160/5B3F5D86" Ref="#PWR083"  Part="1" 
AR Path="/5B3E98F7/5B3F5D86" Ref="#PWR0105"  Part="1" 
F 0 "#PWR0105" H 9200 4650 50  0001 C CNN
F 1 "+5V" H 9200 4940 50  0000 C CNN
F 2 "" H 9200 4800 50  0001 C CNN
F 3 "" H 9200 4800 50  0001 C CNN
	1    9200 4800
	-1   0    0    -1  
$EndComp
Wire Wire Line
	7750 3000 7650 3000
Wire Wire Line
	7750 3300 7650 3300
Wire Wire Line
	7750 3600 7650 3600
Wire Wire Line
	7750 3900 7650 3900
Wire Wire Line
	7750 4200 7650 4200
Wire Wire Line
	7750 4500 7650 4500
Wire Wire Line
	7750 4800 7650 4800
Wire Wire Line
	9300 2700 9200 2700
Wire Wire Line
	9300 3000 9200 3000
Wire Wire Line
	9300 3300 9200 3300
Wire Wire Line
	9300 3600 9200 3600
Wire Wire Line
	9300 3900 9200 3900
Wire Wire Line
	9300 4200 9200 4200
Wire Wire Line
	9300 4500 9200 4500
Wire Wire Line
	9300 4800 9200 4800
Text HLabel 2200 2500 0    60   Input ~ 0
5V
$Comp
L +5V #PWR040
U 1 1 5B3F6071
P 2400 2500
AR Path="/5B3DA66F/5B3F6071" Ref="#PWR040"  Part="1" 
AR Path="/5B3EA857/5B3F6071" Ref="#PWR062"  Part="1" 
AR Path="/5B3EA160/5B3F6071" Ref="#PWR084"  Part="1" 
AR Path="/5B3E98F7/5B3F6071" Ref="#PWR0106"  Part="1" 
F 0 "#PWR0106" H 2400 2350 50  0001 C CNN
F 1 "+5V" H 2400 2640 50  0000 C CNN
F 2 "" H 2400 2500 50  0001 C CNN
F 3 "" H 2400 2500 50  0001 C CNN
	1    2400 2500
	1    0    0    -1  
$EndComp
Wire Wire Line
	2200 2500 2400 2500
$EndSCHEMATC
