(export (version D)
  (design
    (source /home/cl/projects/niklas/niklas.sch)
    (date "Mon Jul  9 17:49:19 2018")
    (tool "Eeschema 4.0.7")
    (sheet (number 1) (name /) (tstamps /)
      (title_block
        (title)
        (company)
        (rev)
        (date)
        (source niklas.sch)
        (comment (number 1) (value ""))
        (comment (number 2) (value ""))
        (comment (number 3) (value ""))
        (comment (number 4) (value ""))))
    (sheet (number 2) (name /Led-Driver/) (tstamps /5B3DA66F/)
      (title_block
        (title)
        (company)
        (rev)
        (date)
        (source leddriver.sch)
        (comment (number 1) (value ""))
        (comment (number 2) (value ""))
        (comment (number 3) (value ""))
        (comment (number 4) (value ""))))
    (sheet (number 3) (name /Led-Driver4/) (tstamps /5B3EA857/)
      (title_block
        (title)
        (company)
        (rev)
        (date)
        (source leddriver.sch)
        (comment (number 1) (value ""))
        (comment (number 2) (value ""))
        (comment (number 3) (value ""))
        (comment (number 4) (value ""))))
    (sheet (number 4) (name /Led-Driver3/) (tstamps /5B3EA160/)
      (title_block
        (title)
        (company)
        (rev)
        (date)
        (source leddriver.sch)
        (comment (number 1) (value ""))
        (comment (number 2) (value ""))
        (comment (number 3) (value ""))
        (comment (number 4) (value ""))))
    (sheet (number 5) (name /Led-Driver2/) (tstamps /5B3E98F7/)
      (title_block
        (title)
        (company)
        (rev)
        (date)
        (source leddriver.sch)
        (comment (number 1) (value ""))
        (comment (number 2) (value ""))
        (comment (number 3) (value ""))
        (comment (number 4) (value "")))))
  (components
    (comp (ref P2)
      (value CONN_01X08)
      (footprint Pin_Headers:Pin_Header_Straight_1x08_Pitch2.54mm)
      (libsource (lib niklas-cache) (part CONN_01X08))
      (sheetpath (names /) (tstamps /))
      (tstamp 5B414056))
    (comp (ref P1)
      (value Conn_01x02)
      (footprint Pin_Headers:Pin_Header_Straight_1x02_Pitch2.54mm)
      (libsource (lib conn) (part Conn_01x02))
      (sheetpath (names /) (tstamps /))
      (tstamp 5B416617))
    (comp (ref IC1)
      (value TLC59282)
      (footprint Housings_SSOP:QSOP-24_3.9x8.7mm_Pitch0.635mm)
      (libsource (lib myparts) (part TLC59282))
      (sheetpath (names /Led-Driver/) (tstamps /5B3DA66F/))
      (tstamp 5B3DCF25))
    (comp (ref D1)
      (value LED)
      (footprint LEDs:LED_1206_HandSoldering)
      (libsource (lib device) (part LED))
      (sheetpath (names /Led-Driver/) (tstamps /5B3DA66F/))
      (tstamp 5B3DCF2C))
    (comp (ref D2)
      (value LED)
      (footprint LEDs:LED_1206_HandSoldering)
      (libsource (lib device) (part LED))
      (sheetpath (names /Led-Driver/) (tstamps /5B3DA66F/))
      (tstamp 5B3DCF4A))
    (comp (ref D3)
      (value LED)
      (footprint LEDs:LED_1206_HandSoldering)
      (libsource (lib device) (part LED))
      (sheetpath (names /Led-Driver/) (tstamps /5B3DA66F/))
      (tstamp 5B3DCF58))
    (comp (ref D4)
      (value LED)
      (footprint LEDs:LED_1206_HandSoldering)
      (libsource (lib device) (part LED))
      (sheetpath (names /Led-Driver/) (tstamps /5B3DA66F/))
      (tstamp 5B3DCF66))
    (comp (ref D5)
      (value LED)
      (footprint LEDs:LED_1206_HandSoldering)
      (libsource (lib device) (part LED))
      (sheetpath (names /Led-Driver/) (tstamps /5B3DA66F/))
      (tstamp 5B3DCF74))
    (comp (ref D6)
      (value LED)
      (footprint LEDs:LED_1206_HandSoldering)
      (libsource (lib device) (part LED))
      (sheetpath (names /Led-Driver/) (tstamps /5B3DA66F/))
      (tstamp 5B3DCF82))
    (comp (ref D7)
      (value LED)
      (footprint LEDs:LED_1206_HandSoldering)
      (libsource (lib device) (part LED))
      (sheetpath (names /Led-Driver/) (tstamps /5B3DA66F/))
      (tstamp 5B3DCF90))
    (comp (ref D8)
      (value LED)
      (footprint LEDs:LED_1206_HandSoldering)
      (libsource (lib device) (part LED))
      (sheetpath (names /Led-Driver/) (tstamps /5B3DA66F/))
      (tstamp 5B3DCF9E))
    (comp (ref D9)
      (value LED)
      (footprint LEDs:LED_1206_HandSoldering)
      (libsource (lib device) (part LED))
      (sheetpath (names /Led-Driver/) (tstamps /5B3DA66F/))
      (tstamp 5B3DCFAC))
    (comp (ref D10)
      (value LED)
      (footprint LEDs:LED_1206_HandSoldering)
      (libsource (lib device) (part LED))
      (sheetpath (names /Led-Driver/) (tstamps /5B3DA66F/))
      (tstamp 5B3DCFBA))
    (comp (ref D11)
      (value LED)
      (footprint LEDs:LED_1206_HandSoldering)
      (libsource (lib device) (part LED))
      (sheetpath (names /Led-Driver/) (tstamps /5B3DA66F/))
      (tstamp 5B3DCFC8))
    (comp (ref D12)
      (value LED)
      (footprint LEDs:LED_1206_HandSoldering)
      (libsource (lib device) (part LED))
      (sheetpath (names /Led-Driver/) (tstamps /5B3DA66F/))
      (tstamp 5B3DCFD6))
    (comp (ref D13)
      (value LED)
      (footprint LEDs:LED_1206_HandSoldering)
      (libsource (lib device) (part LED))
      (sheetpath (names /Led-Driver/) (tstamps /5B3DA66F/))
      (tstamp 5B3DCFE4))
    (comp (ref D14)
      (value LED)
      (footprint LEDs:LED_1206_HandSoldering)
      (libsource (lib device) (part LED))
      (sheetpath (names /Led-Driver/) (tstamps /5B3DA66F/))
      (tstamp 5B3DCFF2))
    (comp (ref D15)
      (value LED)
      (footprint LEDs:LED_1206_HandSoldering)
      (libsource (lib device) (part LED))
      (sheetpath (names /Led-Driver/) (tstamps /5B3DA66F/))
      (tstamp 5B3DD000))
    (comp (ref D16)
      (value LED)
      (footprint LEDs:LED_1206_HandSoldering)
      (libsource (lib device) (part LED))
      (sheetpath (names /Led-Driver/) (tstamps /5B3DA66F/))
      (tstamp 5B3DD00E))
    (comp (ref C1)
      (value C)
      (footprint Capacitors_SMD:C_1206_HandSoldering)
      (libsource (lib device) (part C))
      (sheetpath (names /Led-Driver/) (tstamps /5B3DA66F/))
      (tstamp 5B3DD027))
    (comp (ref R1)
      (value R1k)
      (footprint Resistors_SMD:R_0603_HandSoldering)
      (libsource (lib device) (part R))
      (sheetpath (names /Led-Driver/) (tstamps /5B3DA66F/))
      (tstamp 5B3DE9DA))
    (comp (ref R2)
      (value R1k)
      (footprint Resistors_SMD:R_0603_HandSoldering)
      (libsource (lib device) (part R))
      (sheetpath (names /Led-Driver/) (tstamps /5B3DA66F/))
      (tstamp 5B3F5F99))
    (comp (ref IC4)
      (value TLC59282)
      (footprint Housings_SSOP:QSOP-24_3.9x8.7mm_Pitch0.635mm)
      (libsource (lib myparts) (part TLC59282))
      (sheetpath (names /Led-Driver4/) (tstamps /5B3EA857/))
      (tstamp 5B3DCF25))
    (comp (ref D49)
      (value LED)
      (footprint LEDs:LED_1206_HandSoldering)
      (libsource (lib device) (part LED))
      (sheetpath (names /Led-Driver4/) (tstamps /5B3EA857/))
      (tstamp 5B3DCF2C))
    (comp (ref D50)
      (value LED)
      (footprint LEDs:LED_1206_HandSoldering)
      (libsource (lib device) (part LED))
      (sheetpath (names /Led-Driver4/) (tstamps /5B3EA857/))
      (tstamp 5B3DCF4A))
    (comp (ref D51)
      (value LED)
      (footprint LEDs:LED_1206_HandSoldering)
      (libsource (lib device) (part LED))
      (sheetpath (names /Led-Driver4/) (tstamps /5B3EA857/))
      (tstamp 5B3DCF58))
    (comp (ref D52)
      (value LED)
      (footprint LEDs:LED_1206_HandSoldering)
      (libsource (lib device) (part LED))
      (sheetpath (names /Led-Driver4/) (tstamps /5B3EA857/))
      (tstamp 5B3DCF66))
    (comp (ref D53)
      (value LED)
      (footprint LEDs:LED_1206_HandSoldering)
      (libsource (lib device) (part LED))
      (sheetpath (names /Led-Driver4/) (tstamps /5B3EA857/))
      (tstamp 5B3DCF74))
    (comp (ref D54)
      (value LED)
      (footprint LEDs:LED_1206_HandSoldering)
      (libsource (lib device) (part LED))
      (sheetpath (names /Led-Driver4/) (tstamps /5B3EA857/))
      (tstamp 5B3DCF82))
    (comp (ref D55)
      (value LED)
      (footprint LEDs:LED_1206_HandSoldering)
      (libsource (lib device) (part LED))
      (sheetpath (names /Led-Driver4/) (tstamps /5B3EA857/))
      (tstamp 5B3DCF90))
    (comp (ref D56)
      (value LED)
      (footprint LEDs:LED_1206_HandSoldering)
      (libsource (lib device) (part LED))
      (sheetpath (names /Led-Driver4/) (tstamps /5B3EA857/))
      (tstamp 5B3DCF9E))
    (comp (ref D57)
      (value LED)
      (footprint LEDs:LED_1206_HandSoldering)
      (libsource (lib device) (part LED))
      (sheetpath (names /Led-Driver4/) (tstamps /5B3EA857/))
      (tstamp 5B3DCFAC))
    (comp (ref D58)
      (value LED)
      (footprint LEDs:LED_1206_HandSoldering)
      (libsource (lib device) (part LED))
      (sheetpath (names /Led-Driver4/) (tstamps /5B3EA857/))
      (tstamp 5B3DCFBA))
    (comp (ref D59)
      (value LED)
      (footprint LEDs:LED_1206_HandSoldering)
      (libsource (lib device) (part LED))
      (sheetpath (names /Led-Driver4/) (tstamps /5B3EA857/))
      (tstamp 5B3DCFC8))
    (comp (ref D60)
      (value LED)
      (footprint LEDs:LED_1206_HandSoldering)
      (libsource (lib device) (part LED))
      (sheetpath (names /Led-Driver4/) (tstamps /5B3EA857/))
      (tstamp 5B3DCFD6))
    (comp (ref D61)
      (value LED)
      (footprint LEDs:LED_1206_HandSoldering)
      (libsource (lib device) (part LED))
      (sheetpath (names /Led-Driver4/) (tstamps /5B3EA857/))
      (tstamp 5B3DCFE4))
    (comp (ref D62)
      (value LED)
      (footprint LEDs:LED_1206_HandSoldering)
      (libsource (lib device) (part LED))
      (sheetpath (names /Led-Driver4/) (tstamps /5B3EA857/))
      (tstamp 5B3DCFF2))
    (comp (ref D63)
      (value LED)
      (footprint LEDs:LED_1206_HandSoldering)
      (libsource (lib device) (part LED))
      (sheetpath (names /Led-Driver4/) (tstamps /5B3EA857/))
      (tstamp 5B3DD000))
    (comp (ref D64)
      (value LED)
      (footprint LEDs:LED_1206_HandSoldering)
      (libsource (lib device) (part LED))
      (sheetpath (names /Led-Driver4/) (tstamps /5B3EA857/))
      (tstamp 5B3DD00E))
    (comp (ref C4)
      (value C)
      (footprint Capacitors_SMD:C_1206_HandSoldering)
      (libsource (lib device) (part C))
      (sheetpath (names /Led-Driver4/) (tstamps /5B3EA857/))
      (tstamp 5B3DD027))
    (comp (ref R7)
      (value R1k)
      (footprint Resistors_SMD:R_0603_HandSoldering)
      (libsource (lib device) (part R))
      (sheetpath (names /Led-Driver4/) (tstamps /5B3EA857/))
      (tstamp 5B3DE9DA))
    (comp (ref R8)
      (value R1k)
      (footprint Resistors_SMD:R_0603_HandSoldering)
      (libsource (lib device) (part R))
      (sheetpath (names /Led-Driver4/) (tstamps /5B3EA857/))
      (tstamp 5B3F5F99))
    (comp (ref IC3)
      (value TLC59282)
      (footprint Housings_SSOP:QSOP-24_3.9x8.7mm_Pitch0.635mm)
      (libsource (lib myparts) (part TLC59282))
      (sheetpath (names /Led-Driver3/) (tstamps /5B3EA160/))
      (tstamp 5B3DCF25))
    (comp (ref D33)
      (value LED)
      (footprint LEDs:LED_1206_HandSoldering)
      (libsource (lib device) (part LED))
      (sheetpath (names /Led-Driver3/) (tstamps /5B3EA160/))
      (tstamp 5B3DCF2C))
    (comp (ref D34)
      (value LED)
      (footprint LEDs:LED_1206_HandSoldering)
      (libsource (lib device) (part LED))
      (sheetpath (names /Led-Driver3/) (tstamps /5B3EA160/))
      (tstamp 5B3DCF4A))
    (comp (ref D35)
      (value LED)
      (footprint LEDs:LED_1206_HandSoldering)
      (libsource (lib device) (part LED))
      (sheetpath (names /Led-Driver3/) (tstamps /5B3EA160/))
      (tstamp 5B3DCF58))
    (comp (ref D36)
      (value LED)
      (footprint LEDs:LED_1206_HandSoldering)
      (libsource (lib device) (part LED))
      (sheetpath (names /Led-Driver3/) (tstamps /5B3EA160/))
      (tstamp 5B3DCF66))
    (comp (ref D37)
      (value LED)
      (footprint LEDs:LED_1206_HandSoldering)
      (libsource (lib device) (part LED))
      (sheetpath (names /Led-Driver3/) (tstamps /5B3EA160/))
      (tstamp 5B3DCF74))
    (comp (ref D38)
      (value LED)
      (footprint LEDs:LED_1206_HandSoldering)
      (libsource (lib device) (part LED))
      (sheetpath (names /Led-Driver3/) (tstamps /5B3EA160/))
      (tstamp 5B3DCF82))
    (comp (ref D39)
      (value LED)
      (footprint LEDs:LED_1206_HandSoldering)
      (libsource (lib device) (part LED))
      (sheetpath (names /Led-Driver3/) (tstamps /5B3EA160/))
      (tstamp 5B3DCF90))
    (comp (ref D40)
      (value LED)
      (footprint LEDs:LED_1206_HandSoldering)
      (libsource (lib device) (part LED))
      (sheetpath (names /Led-Driver3/) (tstamps /5B3EA160/))
      (tstamp 5B3DCF9E))
    (comp (ref D41)
      (value LED)
      (footprint LEDs:LED_1206_HandSoldering)
      (libsource (lib device) (part LED))
      (sheetpath (names /Led-Driver3/) (tstamps /5B3EA160/))
      (tstamp 5B3DCFAC))
    (comp (ref D42)
      (value LED)
      (footprint LEDs:LED_1206_HandSoldering)
      (libsource (lib device) (part LED))
      (sheetpath (names /Led-Driver3/) (tstamps /5B3EA160/))
      (tstamp 5B3DCFBA))
    (comp (ref D43)
      (value LED)
      (footprint LEDs:LED_1206_HandSoldering)
      (libsource (lib device) (part LED))
      (sheetpath (names /Led-Driver3/) (tstamps /5B3EA160/))
      (tstamp 5B3DCFC8))
    (comp (ref D44)
      (value LED)
      (footprint LEDs:LED_1206_HandSoldering)
      (libsource (lib device) (part LED))
      (sheetpath (names /Led-Driver3/) (tstamps /5B3EA160/))
      (tstamp 5B3DCFD6))
    (comp (ref D45)
      (value LED)
      (footprint LEDs:LED_1206_HandSoldering)
      (libsource (lib device) (part LED))
      (sheetpath (names /Led-Driver3/) (tstamps /5B3EA160/))
      (tstamp 5B3DCFE4))
    (comp (ref D46)
      (value LED)
      (footprint LEDs:LED_1206_HandSoldering)
      (libsource (lib device) (part LED))
      (sheetpath (names /Led-Driver3/) (tstamps /5B3EA160/))
      (tstamp 5B3DCFF2))
    (comp (ref D47)
      (value LED)
      (footprint LEDs:LED_1206_HandSoldering)
      (libsource (lib device) (part LED))
      (sheetpath (names /Led-Driver3/) (tstamps /5B3EA160/))
      (tstamp 5B3DD000))
    (comp (ref D48)
      (value LED)
      (footprint LEDs:LED_1206_HandSoldering)
      (libsource (lib device) (part LED))
      (sheetpath (names /Led-Driver3/) (tstamps /5B3EA160/))
      (tstamp 5B3DD00E))
    (comp (ref C3)
      (value C)
      (footprint Capacitors_SMD:C_1206_HandSoldering)
      (libsource (lib device) (part C))
      (sheetpath (names /Led-Driver3/) (tstamps /5B3EA160/))
      (tstamp 5B3DD027))
    (comp (ref R5)
      (value R1k)
      (footprint Resistors_SMD:R_0603_HandSoldering)
      (libsource (lib device) (part R))
      (sheetpath (names /Led-Driver3/) (tstamps /5B3EA160/))
      (tstamp 5B3DE9DA))
    (comp (ref R6)
      (value R1k)
      (footprint Resistors_SMD:R_0603_HandSoldering)
      (libsource (lib device) (part R))
      (sheetpath (names /Led-Driver3/) (tstamps /5B3EA160/))
      (tstamp 5B3F5F99))
    (comp (ref IC2)
      (value TLC59282)
      (footprint Housings_SSOP:QSOP-24_3.9x8.7mm_Pitch0.635mm)
      (libsource (lib myparts) (part TLC59282))
      (sheetpath (names /Led-Driver2/) (tstamps /5B3E98F7/))
      (tstamp 5B3DCF25))
    (comp (ref D17)
      (value LED)
      (footprint LEDs:LED_1206_HandSoldering)
      (libsource (lib device) (part LED))
      (sheetpath (names /Led-Driver2/) (tstamps /5B3E98F7/))
      (tstamp 5B3DCF2C))
    (comp (ref D18)
      (value LED)
      (footprint LEDs:LED_1206_HandSoldering)
      (libsource (lib device) (part LED))
      (sheetpath (names /Led-Driver2/) (tstamps /5B3E98F7/))
      (tstamp 5B3DCF4A))
    (comp (ref D19)
      (value LED)
      (footprint LEDs:LED_1206_HandSoldering)
      (libsource (lib device) (part LED))
      (sheetpath (names /Led-Driver2/) (tstamps /5B3E98F7/))
      (tstamp 5B3DCF58))
    (comp (ref D20)
      (value LED)
      (footprint LEDs:LED_1206_HandSoldering)
      (libsource (lib device) (part LED))
      (sheetpath (names /Led-Driver2/) (tstamps /5B3E98F7/))
      (tstamp 5B3DCF66))
    (comp (ref D21)
      (value LED)
      (footprint LEDs:LED_1206_HandSoldering)
      (libsource (lib device) (part LED))
      (sheetpath (names /Led-Driver2/) (tstamps /5B3E98F7/))
      (tstamp 5B3DCF74))
    (comp (ref D22)
      (value LED)
      (footprint LEDs:LED_1206_HandSoldering)
      (libsource (lib device) (part LED))
      (sheetpath (names /Led-Driver2/) (tstamps /5B3E98F7/))
      (tstamp 5B3DCF82))
    (comp (ref D23)
      (value LED)
      (footprint LEDs:LED_1206_HandSoldering)
      (libsource (lib device) (part LED))
      (sheetpath (names /Led-Driver2/) (tstamps /5B3E98F7/))
      (tstamp 5B3DCF90))
    (comp (ref D24)
      (value LED)
      (footprint LEDs:LED_1206_HandSoldering)
      (libsource (lib device) (part LED))
      (sheetpath (names /Led-Driver2/) (tstamps /5B3E98F7/))
      (tstamp 5B3DCF9E))
    (comp (ref D25)
      (value LED)
      (footprint LEDs:LED_1206_HandSoldering)
      (libsource (lib device) (part LED))
      (sheetpath (names /Led-Driver2/) (tstamps /5B3E98F7/))
      (tstamp 5B3DCFAC))
    (comp (ref D26)
      (value LED)
      (footprint LEDs:LED_1206_HandSoldering)
      (libsource (lib device) (part LED))
      (sheetpath (names /Led-Driver2/) (tstamps /5B3E98F7/))
      (tstamp 5B3DCFBA))
    (comp (ref D27)
      (value LED)
      (footprint LEDs:LED_1206_HandSoldering)
      (libsource (lib device) (part LED))
      (sheetpath (names /Led-Driver2/) (tstamps /5B3E98F7/))
      (tstamp 5B3DCFC8))
    (comp (ref D28)
      (value LED)
      (footprint LEDs:LED_1206_HandSoldering)
      (libsource (lib device) (part LED))
      (sheetpath (names /Led-Driver2/) (tstamps /5B3E98F7/))
      (tstamp 5B3DCFD6))
    (comp (ref D29)
      (value LED)
      (footprint LEDs:LED_1206_HandSoldering)
      (libsource (lib device) (part LED))
      (sheetpath (names /Led-Driver2/) (tstamps /5B3E98F7/))
      (tstamp 5B3DCFE4))
    (comp (ref D30)
      (value LED)
      (footprint LEDs:LED_1206_HandSoldering)
      (libsource (lib device) (part LED))
      (sheetpath (names /Led-Driver2/) (tstamps /5B3E98F7/))
      (tstamp 5B3DCFF2))
    (comp (ref D31)
      (value LED)
      (footprint LEDs:LED_1206_HandSoldering)
      (libsource (lib device) (part LED))
      (sheetpath (names /Led-Driver2/) (tstamps /5B3E98F7/))
      (tstamp 5B3DD000))
    (comp (ref D32)
      (value LED)
      (footprint LEDs:LED_1206_HandSoldering)
      (libsource (lib device) (part LED))
      (sheetpath (names /Led-Driver2/) (tstamps /5B3E98F7/))
      (tstamp 5B3DD00E))
    (comp (ref C2)
      (value C)
      (footprint Capacitors_SMD:C_1206_HandSoldering)
      (libsource (lib device) (part C))
      (sheetpath (names /Led-Driver2/) (tstamps /5B3E98F7/))
      (tstamp 5B3DD027))
    (comp (ref R3)
      (value R1k)
      (footprint Resistors_SMD:R_0603_HandSoldering)
      (libsource (lib device) (part R))
      (sheetpath (names /Led-Driver2/) (tstamps /5B3E98F7/))
      (tstamp 5B3DE9DA))
    (comp (ref R4)
      (value R1k)
      (footprint Resistors_SMD:R_0603_HandSoldering)
      (libsource (lib device) (part R))
      (sheetpath (names /Led-Driver2/) (tstamps /5B3E98F7/))
      (tstamp 5B3F5F99)))
  (libparts
    (libpart (lib device) (part C)
      (description "Unpolarized capacitor")
      (footprints
        (fp C_*))
      (fields
        (field (name Reference) C)
        (field (name Value) C))
      (pins
        (pin (num 1) (name ~) (type passive))
        (pin (num 2) (name ~) (type passive))))
    (libpart (lib niklas-cache) (part CONN_01X08)
      (footprints
        (fp Pin_Header_Straight_1X08)
        (fp Pin_Header_Angled_1X08)
        (fp Socket_Strip_Straight_1X08)
        (fp Socket_Strip_Angled_1X08))
      (fields
        (field (name Reference) P)
        (field (name Value) CONN_01X08))
      (pins
        (pin (num 1) (name P1) (type passive))
        (pin (num 2) (name P2) (type passive))
        (pin (num 3) (name P3) (type passive))
        (pin (num 4) (name P4) (type passive))
        (pin (num 5) (name P5) (type passive))
        (pin (num 6) (name P6) (type passive))
        (pin (num 7) (name P7) (type passive))
        (pin (num 8) (name P8) (type passive))))
    (libpart (lib conn) (part Conn_01x02)
      (description "Generic connector, single row, 01x02")
      (docs ~)
      (footprints
        (fp Connector*:*_??x*mm*)
        (fp Connector*:*1x??x*mm*)
        (fp Pin?Header?Straight?1X*)
        (fp Pin?Header?Angled?1X*)
        (fp Socket?Strip?Straight?1X*)
        (fp Socket?Strip?Angled?1X*))
      (fields
        (field (name Reference) J)
        (field (name Value) Conn_01x02))
      (pins
        (pin (num 1) (name Pin_1) (type passive))
        (pin (num 2) (name Pin_2) (type passive))))
    (libpart (lib device) (part LED)
      (description "LED generic")
      (footprints
        (fp LED*))
      (fields
        (field (name Reference) D)
        (field (name Value) LED))
      (pins
        (pin (num 1) (name K) (type passive))
        (pin (num 2) (name A) (type passive))))
    (libpart (lib device) (part R)
      (description Resistor)
      (footprints
        (fp R_*)
        (fp R_*))
      (fields
        (field (name Reference) R)
        (field (name Value) R))
      (pins
        (pin (num 1) (name ~) (type passive))
        (pin (num 2) (name ~) (type passive))))
    (libpart (lib myparts) (part TLC59282)
      (fields
        (field (name Reference) IC)
        (field (name Value) TLC59282))
      (pins
        (pin (num 1) (name GND) (type power_in))
        (pin (num 2) (name SIN) (type passive))
        (pin (num 3) (name SCLK) (type passive))
        (pin (num 4) (name LAT) (type passive))
        (pin (num 5) (name OUT0) (type output))
        (pin (num 6) (name OUT1) (type output))
        (pin (num 7) (name OUT2) (type output))
        (pin (num 8) (name OUT3) (type output))
        (pin (num 9) (name OUT4) (type output))
        (pin (num 10) (name OUT5) (type output))
        (pin (num 11) (name OUT6) (type output))
        (pin (num 12) (name OUT7) (type output))
        (pin (num 13) (name OUT8) (type output))
        (pin (num 14) (name OUT9) (type output))
        (pin (num 15) (name OUT10) (type output))
        (pin (num 16) (name OUT11) (type output))
        (pin (num 17) (name OUT12) (type output))
        (pin (num 18) (name OUT13) (type output))
        (pin (num 19) (name OUT14) (type output))
        (pin (num 20) (name OUT15) (type output))
        (pin (num 21) (name BLANK) (type passive))
        (pin (num 22) (name SOUT) (type output))
        (pin (num 23) (name IREF) (type output))
        (pin (num 24) (name VCC) (type power_in)))))
  (libraries
    (library (logical conn)
      (uri /usr/share/kicad/library/conn.lib))
    (library (logical device)
      (uri /usr/share/kicad/library/device.lib))
    (library (logical myparts)
      (uri /home/cl/kicad/library/myparts.lib))
    (library (logical niklas-cache)
      (uri /home/cl/projects/niklas/niklas-cache.lib)))
  (nets
    (net (code 1) (name /D7)
      (node (ref IC1) (pin 2))
      (node (ref P2) (pin 3)))
    (net (code 2) (name +5V)
      (node (ref D5) (pin 2))
      (node (ref D3) (pin 2))
      (node (ref D4) (pin 2))
      (node (ref D29) (pin 2))
      (node (ref D17) (pin 2))
      (node (ref D18) (pin 2))
      (node (ref D19) (pin 2))
      (node (ref D26) (pin 2))
      (node (ref D21) (pin 2))
      (node (ref D22) (pin 2))
      (node (ref D23) (pin 2))
      (node (ref D24) (pin 2))
      (node (ref D25) (pin 2))
      (node (ref D20) (pin 2))
      (node (ref D27) (pin 2))
      (node (ref D28) (pin 2))
      (node (ref D30) (pin 2))
      (node (ref D31) (pin 2))
      (node (ref D32) (pin 2))
      (node (ref D7) (pin 2))
      (node (ref D16) (pin 2))
      (node (ref D15) (pin 2))
      (node (ref D14) (pin 2))
      (node (ref D13) (pin 2))
      (node (ref D12) (pin 2))
      (node (ref D11) (pin 2))
      (node (ref D8) (pin 2))
      (node (ref D10) (pin 2))
      (node (ref D2) (pin 2))
      (node (ref D9) (pin 2))
      (node (ref D6) (pin 2))
      (node (ref D49) (pin 2))
      (node (ref D50) (pin 2))
      (node (ref D51) (pin 2))
      (node (ref D58) (pin 2))
      (node (ref D37) (pin 2))
      (node (ref D47) (pin 2))
      (node (ref D53) (pin 2))
      (node (ref D54) (pin 2))
      (node (ref D55) (pin 2))
      (node (ref D56) (pin 2))
      (node (ref D57) (pin 2))
      (node (ref D52) (pin 2))
      (node (ref D59) (pin 2))
      (node (ref D60) (pin 2))
      (node (ref D61) (pin 2))
      (node (ref D62) (pin 2))
      (node (ref D63) (pin 2))
      (node (ref D64) (pin 2))
      (node (ref D48) (pin 2))
      (node (ref D46) (pin 2))
      (node (ref D45) (pin 2))
      (node (ref D44) (pin 2))
      (node (ref D43) (pin 2))
      (node (ref D42) (pin 2))
      (node (ref D41) (pin 2))
      (node (ref D40) (pin 2))
      (node (ref D39) (pin 2))
      (node (ref D38) (pin 2))
      (node (ref D36) (pin 2))
      (node (ref D35) (pin 2))
      (node (ref D34) (pin 2))
      (node (ref D33) (pin 2))
      (node (ref P1) (pin 1))
      (node (ref D1) (pin 2)))
    (net (code 3) (name /D8)
      (node (ref IC2) (pin 21))
      (node (ref IC3) (pin 21))
      (node (ref IC4) (pin 21))
      (node (ref IC1) (pin 21))
      (node (ref P2) (pin 2)))
    (net (code 4) (name /D6)
      (node (ref IC3) (pin 3))
      (node (ref IC2) (pin 3))
      (node (ref IC4) (pin 3))
      (node (ref IC1) (pin 3))
      (node (ref P2) (pin 4)))
    (net (code 5) (name /D5)
      (node (ref IC3) (pin 4))
      (node (ref IC4) (pin 4))
      (node (ref IC2) (pin 4))
      (node (ref P2) (pin 5))
      (node (ref IC1) (pin 4)))
    (net (code 6) (name /D0)
      (node (ref P2) (pin 6)))
    (net (code 7) (name /A0)
      (node (ref P2) (pin 7)))
    (net (code 8) (name /RST)
      (node (ref P2) (pin 8)))
    (net (code 9) (name /Led-Driver4/SIN)
      (node (ref IC4) (pin 2))
      (node (ref IC3) (pin 22)))
    (net (code 10) (name /Led-Driver3/SIN)
      (node (ref IC2) (pin 22))
      (node (ref IC3) (pin 2)))
    (net (code 11) (name /Led-Driver2/SIN)
      (node (ref IC1) (pin 22))
      (node (ref IC2) (pin 2)))
    (net (code 12) (name +3V3)
      (node (ref P2) (pin 1))
      (node (ref C4) (pin 1))
      (node (ref C3) (pin 1))
      (node (ref IC3) (pin 24))
      (node (ref IC4) (pin 24))
      (node (ref C2) (pin 1))
      (node (ref C1) (pin 1))
      (node (ref IC2) (pin 24))
      (node (ref IC1) (pin 24)))
    (net (code 13) (name GND)
      (node (ref C1) (pin 2))
      (node (ref IC4) (pin 1))
      (node (ref C2) (pin 2))
      (node (ref P1) (pin 2))
      (node (ref R2) (pin 1))
      (node (ref R4) (pin 1))
      (node (ref IC3) (pin 1))
      (node (ref IC2) (pin 1))
      (node (ref C3) (pin 2))
      (node (ref C4) (pin 2))
      (node (ref IC1) (pin 1))
      (node (ref R6) (pin 1))
      (node (ref R8) (pin 1)))
    (net (code 14) (name /Led-Driver4/SOUT)
      (node (ref IC4) (pin 22)))
    (net (code 15) (name "Net-(IC1-Pad23)")
      (node (ref IC1) (pin 23))
      (node (ref R1) (pin 2)))
    (net (code 16) (name "Net-(R1-Pad1)")
      (node (ref R2) (pin 2))
      (node (ref R1) (pin 1)))
    (net (code 17) (name /Led-Driver/OUT4)
      (node (ref D5) (pin 1))
      (node (ref IC1) (pin 9)))
    (net (code 18) (name /Led-Driver/OUT1)
      (node (ref D2) (pin 1))
      (node (ref IC1) (pin 6)))
    (net (code 19) (name /Led-Driver/OUT3)
      (node (ref IC1) (pin 8))
      (node (ref D4) (pin 1)))
    (net (code 20) (name /Led-Driver/OUT5)
      (node (ref D6) (pin 1))
      (node (ref IC1) (pin 10)))
    (net (code 21) (name /Led-Driver/OUT6)
      (node (ref IC1) (pin 11))
      (node (ref D7) (pin 1)))
    (net (code 22) (name /Led-Driver/OUT7)
      (node (ref IC1) (pin 12))
      (node (ref D8) (pin 1)))
    (net (code 23) (name /Led-Driver/OUT8)
      (node (ref D9) (pin 1))
      (node (ref IC1) (pin 13)))
    (net (code 24) (name /Led-Driver/OUT9)
      (node (ref D10) (pin 1))
      (node (ref IC1) (pin 14)))
    (net (code 25) (name /Led-Driver/OUT0)
      (node (ref IC1) (pin 5))
      (node (ref D1) (pin 1)))
    (net (code 26) (name /Led-Driver/OUT2)
      (node (ref D3) (pin 1))
      (node (ref IC1) (pin 7)))
    (net (code 27) (name /Led-Driver/OUT10)
      (node (ref IC1) (pin 15))
      (node (ref D11) (pin 1)))
    (net (code 28) (name /Led-Driver/OUT11)
      (node (ref D12) (pin 1))
      (node (ref IC1) (pin 16)))
    (net (code 29) (name /Led-Driver/OUT12)
      (node (ref IC1) (pin 17))
      (node (ref D13) (pin 1)))
    (net (code 30) (name /Led-Driver/OUT13)
      (node (ref IC1) (pin 18))
      (node (ref D14) (pin 1)))
    (net (code 31) (name /Led-Driver/OUT14)
      (node (ref IC1) (pin 19))
      (node (ref D15) (pin 1)))
    (net (code 32) (name /Led-Driver/OUT15)
      (node (ref IC1) (pin 20))
      (node (ref D16) (pin 1)))
    (net (code 33) (name /Led-Driver2/OUT4)
      (node (ref IC2) (pin 9))
      (node (ref D21) (pin 1)))
    (net (code 34) (name /Led-Driver2/OUT10)
      (node (ref D27) (pin 1))
      (node (ref IC2) (pin 15)))
    (net (code 35) (name /Led-Driver2/OUT9)
      (node (ref IC2) (pin 14))
      (node (ref D26) (pin 1)))
    (net (code 36) (name /Led-Driver2/OUT8)
      (node (ref IC2) (pin 13))
      (node (ref D25) (pin 1)))
    (net (code 37) (name /Led-Driver2/OUT7)
      (node (ref IC2) (pin 12))
      (node (ref D24) (pin 1)))
    (net (code 38) (name /Led-Driver2/OUT6)
      (node (ref D23) (pin 1))
      (node (ref IC2) (pin 11)))
    (net (code 39) (name /Led-Driver2/OUT15)
      (node (ref D32) (pin 1))
      (node (ref IC2) (pin 20)))
    (net (code 40) (name /Led-Driver2/OUT5)
      (node (ref IC2) (pin 10))
      (node (ref D22) (pin 1)))
    (net (code 41) (name /Led-Driver2/OUT11)
      (node (ref IC2) (pin 16))
      (node (ref D28) (pin 1)))
    (net (code 42) (name /Led-Driver2/OUT3)
      (node (ref IC2) (pin 8))
      (node (ref D20) (pin 1)))
    (net (code 43) (name /Led-Driver2/OUT2)
      (node (ref IC2) (pin 7))
      (node (ref D19) (pin 1)))
    (net (code 44) (name /Led-Driver2/OUT1)
      (node (ref D18) (pin 1))
      (node (ref IC2) (pin 6)))
    (net (code 45) (name /Led-Driver2/OUT0)
      (node (ref D17) (pin 1))
      (node (ref IC2) (pin 5)))
    (net (code 46) (name /Led-Driver2/OUT14)
      (node (ref D31) (pin 1))
      (node (ref IC2) (pin 19)))
    (net (code 47) (name /Led-Driver2/OUT13)
      (node (ref D30) (pin 1))
      (node (ref IC2) (pin 18)))
    (net (code 48) (name /Led-Driver2/OUT12)
      (node (ref D29) (pin 1))
      (node (ref IC2) (pin 17)))
    (net (code 49) (name "Net-(IC2-Pad23)")
      (node (ref IC2) (pin 23))
      (node (ref R3) (pin 2)))
    (net (code 50) (name "Net-(R3-Pad1)")
      (node (ref R3) (pin 1))
      (node (ref R4) (pin 2)))
    (net (code 51) (name "Net-(IC3-Pad23)")
      (node (ref IC3) (pin 23))
      (node (ref R5) (pin 2)))
    (net (code 52) (name "Net-(R5-Pad1)")
      (node (ref R5) (pin 1))
      (node (ref R6) (pin 2)))
    (net (code 53) (name /Led-Driver3/OUT2)
      (node (ref D35) (pin 1))
      (node (ref IC3) (pin 7)))
    (net (code 54) (name /Led-Driver3/OUT3)
      (node (ref IC3) (pin 8))
      (node (ref D36) (pin 1)))
    (net (code 55) (name /Led-Driver3/OUT4)
      (node (ref D37) (pin 1))
      (node (ref IC3) (pin 9)))
    (net (code 56) (name /Led-Driver3/OUT5)
      (node (ref D38) (pin 1))
      (node (ref IC3) (pin 10)))
    (net (code 57) (name /Led-Driver3/OUT6)
      (node (ref IC3) (pin 11))
      (node (ref D39) (pin 1)))
    (net (code 58) (name /Led-Driver3/OUT7)
      (node (ref IC3) (pin 12))
      (node (ref D40) (pin 1)))
    (net (code 59) (name /Led-Driver3/OUT8)
      (node (ref IC3) (pin 13))
      (node (ref D41) (pin 1)))
    (net (code 60) (name /Led-Driver3/OUT9)
      (node (ref IC3) (pin 14))
      (node (ref D42) (pin 1)))
    (net (code 61) (name /Led-Driver3/OUT0)
      (node (ref D33) (pin 1))
      (node (ref IC3) (pin 5)))
    (net (code 62) (name /Led-Driver3/OUT1)
      (node (ref IC3) (pin 6))
      (node (ref D34) (pin 1)))
    (net (code 63) (name /Led-Driver3/OUT10)
      (node (ref IC3) (pin 15))
      (node (ref D43) (pin 1)))
    (net (code 64) (name /Led-Driver3/OUT11)
      (node (ref D44) (pin 1))
      (node (ref IC3) (pin 16)))
    (net (code 65) (name /Led-Driver3/OUT12)
      (node (ref D45) (pin 1))
      (node (ref IC3) (pin 17)))
    (net (code 66) (name /Led-Driver3/OUT13)
      (node (ref D46) (pin 1))
      (node (ref IC3) (pin 18)))
    (net (code 67) (name /Led-Driver3/OUT14)
      (node (ref D47) (pin 1))
      (node (ref IC3) (pin 19)))
    (net (code 68) (name /Led-Driver3/OUT15)
      (node (ref IC3) (pin 20))
      (node (ref D48) (pin 1)))
    (net (code 69) (name /Led-Driver4/OUT4)
      (node (ref IC4) (pin 9))
      (node (ref D53) (pin 1)))
    (net (code 70) (name /Led-Driver4/OUT10)
      (node (ref IC4) (pin 15))
      (node (ref D59) (pin 1)))
    (net (code 71) (name /Led-Driver4/OUT9)
      (node (ref IC4) (pin 14))
      (node (ref D58) (pin 1)))
    (net (code 72) (name /Led-Driver4/OUT8)
      (node (ref IC4) (pin 13))
      (node (ref D57) (pin 1)))
    (net (code 73) (name /Led-Driver4/OUT7)
      (node (ref IC4) (pin 12))
      (node (ref D56) (pin 1)))
    (net (code 74) (name /Led-Driver4/OUT6)
      (node (ref D55) (pin 1))
      (node (ref IC4) (pin 11)))
    (net (code 75) (name /Led-Driver4/OUT15)
      (node (ref IC4) (pin 20))
      (node (ref D64) (pin 1)))
    (net (code 76) (name /Led-Driver4/OUT5)
      (node (ref IC4) (pin 10))
      (node (ref D54) (pin 1)))
    (net (code 77) (name /Led-Driver4/OUT11)
      (node (ref IC4) (pin 16))
      (node (ref D60) (pin 1)))
    (net (code 78) (name /Led-Driver4/OUT3)
      (node (ref D52) (pin 1))
      (node (ref IC4) (pin 8)))
    (net (code 79) (name /Led-Driver4/OUT2)
      (node (ref IC4) (pin 7))
      (node (ref D51) (pin 1)))
    (net (code 80) (name /Led-Driver4/OUT1)
      (node (ref IC4) (pin 6))
      (node (ref D50) (pin 1)))
    (net (code 81) (name /Led-Driver4/OUT0)
      (node (ref IC4) (pin 5))
      (node (ref D49) (pin 1)))
    (net (code 82) (name /Led-Driver4/OUT14)
      (node (ref D63) (pin 1))
      (node (ref IC4) (pin 19)))
    (net (code 83) (name /Led-Driver4/OUT13)
      (node (ref D62) (pin 1))
      (node (ref IC4) (pin 18)))
    (net (code 84) (name /Led-Driver4/OUT12)
      (node (ref D61) (pin 1))
      (node (ref IC4) (pin 17)))
    (net (code 85) (name "Net-(IC4-Pad23)")
      (node (ref IC4) (pin 23))
      (node (ref R7) (pin 2)))
    (net (code 86) (name "Net-(R7-Pad1)")
      (node (ref R8) (pin 2))
      (node (ref R7) (pin 1)))))