EESchema Schematic File Version 2
LIBS:power
LIBS:device
LIBS:switches
LIBS:relays
LIBS:motors
LIBS:transistors
LIBS:conn
LIBS:linear
LIBS:regul
LIBS:74xx
LIBS:cmos4000
LIBS:adc-dac
LIBS:memory
LIBS:xilinx
LIBS:microcontrollers
LIBS:dsp
LIBS:microchip
LIBS:analog_switches
LIBS:motorola
LIBS:texas
LIBS:intel
LIBS:audio
LIBS:interface
LIBS:digital-audio
LIBS:philips
LIBS:display
LIBS:cypress
LIBS:siliconi
LIBS:opto
LIBS:atmel
LIBS:contrib
LIBS:valves
LIBS:myparts
LIBS:niklas-cache
EELAYER 25 0
EELAYER END
$Descr A4 11693 8268
encoding utf-8
Sheet 1 5
Title ""
Date ""
Rev ""
Comp ""
Comment1 ""
Comment2 ""
Comment3 ""
Comment4 ""
$EndDescr
Text Label 6450 2200 0    60   ~ 0
sclk
Text Label 6450 2300 0    60   ~ 0
lat
Text Label 6450 2000 0    60   ~ 0
blank
Text Label 6450 2100 0    60   ~ 0
sin
$Sheet
S 2500 3450 850  1100
U 5B3DA66F
F0 "Led-Driver" 60
F1 "leddriver.sch" 60
F2 "3.3V" I L 2500 3700 60 
F3 "GND" I L 2500 4450 60 
F4 "SIN" I L 2500 3850 60 
F5 "LAT" I L 2500 4150 60 
F6 "BLANK" I L 2500 4300 60 
F7 "SOUT" O R 3350 3850 60 
F8 "SCLK" I L 2500 4000 60 
F9 "5V" I L 2500 3550 60 
$EndSheet
$Comp
L GND #PWR01
U 1 1 5B3EA973
P 2350 4450
F 0 "#PWR01" H 2350 4200 50  0001 C CNN
F 1 "GND" H 2350 4300 50  0000 C CNN
F 2 "" H 2350 4450 50  0001 C CNN
F 3 "" H 2350 4450 50  0001 C CNN
	1    2350 4450
	1    0    0    -1  
$EndComp
$Comp
L GND #PWR02
U 1 1 5B3EAC4A
P 4000 4450
F 0 "#PWR02" H 4000 4200 50  0001 C CNN
F 1 "GND" H 4000 4300 50  0000 C CNN
F 2 "" H 4000 4450 50  0001 C CNN
F 3 "" H 4000 4450 50  0001 C CNN
	1    4000 4450
	1    0    0    -1  
$EndComp
$Comp
L GND #PWR03
U 1 1 5B3EAE81
P 5650 4450
F 0 "#PWR03" H 5650 4200 50  0001 C CNN
F 1 "GND" H 5650 4300 50  0000 C CNN
F 2 "" H 5650 4450 50  0001 C CNN
F 3 "" H 5650 4450 50  0001 C CNN
	1    5650 4450
	1    0    0    -1  
$EndComp
$Comp
L GND #PWR04
U 1 1 5B3EB018
P 7300 4450
F 0 "#PWR04" H 7300 4200 50  0001 C CNN
F 1 "GND" H 7300 4300 50  0000 C CNN
F 2 "" H 7300 4450 50  0001 C CNN
F 3 "" H 7300 4450 50  0001 C CNN
	1    7300 4450
	1    0    0    -1  
$EndComp
Wire Wire Line
	7300 4450 7450 4450
Wire Wire Line
	5650 4450 5800 4450
Wire Wire Line
	4000 4450 4150 4450
Wire Wire Line
	2350 4450 2500 4450
$Comp
L +3.3V #PWR05
U 1 1 5B3EBFD6
P 2150 3700
F 0 "#PWR05" H 2150 3550 50  0001 C CNN
F 1 "+3.3V" H 2150 3840 50  0000 C CNN
F 2 "" H 2150 3700 50  0001 C CNN
F 3 "" H 2150 3700 50  0001 C CNN
	1    2150 3700
	1    0    0    -1  
$EndComp
$Comp
L +3.3V #PWR06
U 1 1 5B3ECDED
P 3750 3700
F 0 "#PWR06" H 3750 3550 50  0001 C CNN
F 1 "+3.3V" H 3750 3840 50  0000 C CNN
F 2 "" H 3750 3700 50  0001 C CNN
F 3 "" H 3750 3700 50  0001 C CNN
	1    3750 3700
	1    0    0    -1  
$EndComp
$Comp
L +3.3V #PWR07
U 1 1 5B3ECF84
P 5400 3700
F 0 "#PWR07" H 5400 3550 50  0001 C CNN
F 1 "+3.3V" H 5400 3840 50  0000 C CNN
F 2 "" H 5400 3700 50  0001 C CNN
F 3 "" H 5400 3700 50  0001 C CNN
	1    5400 3700
	1    0    0    -1  
$EndComp
$Comp
L +3.3V #PWR08
U 1 1 5B3ED167
P 7050 3700
F 0 "#PWR08" H 7050 3550 50  0001 C CNN
F 1 "+3.3V" H 7050 3840 50  0000 C CNN
F 2 "" H 7050 3700 50  0001 C CNN
F 3 "" H 7050 3700 50  0001 C CNN
	1    7050 3700
	1    0    0    -1  
$EndComp
Wire Wire Line
	7050 3700 7450 3700
Wire Wire Line
	5400 3700 5800 3700
Wire Wire Line
	3750 3700 4150 3700
Wire Wire Line
	2150 3700 2500 3700
NoConn ~ 8300 3850
Text Label 2500 4000 2    60   ~ 0
sclk
Text Label 4150 4000 2    60   ~ 0
sclk
Text Label 5800 4000 2    60   ~ 0
sclk
Text Label 7450 4000 2    60   ~ 0
sclk
Text Label 2500 4150 2    60   ~ 0
lat
Text Label 4150 4150 2    60   ~ 0
lat
Text Label 5800 4150 2    60   ~ 0
lat
Text Label 7450 4150 2    60   ~ 0
lat
Text Label 2500 4300 2    60   ~ 0
blank
Text Label 4150 4300 2    60   ~ 0
blank
Text Label 5800 4300 2    60   ~ 0
blank
Text Label 7450 4300 2    60   ~ 0
blank
Text Label 2500 3850 2    60   ~ 0
sin
$Comp
L +5V #PWR09
U 1 1 5B3F796D
P 2350 3550
F 0 "#PWR09" H 2350 3400 50  0001 C CNN
F 1 "+5V" H 2350 3690 50  0000 C CNN
F 2 "" H 2350 3550 50  0001 C CNN
F 3 "" H 2350 3550 50  0001 C CNN
	1    2350 3550
	1    0    0    -1  
$EndComp
Wire Wire Line
	2350 3550 2500 3550
$Sheet
S 7450 3450 850  1100
U 5B3EA857
F0 "Led-Driver4" 60
F1 "leddriver.sch" 60
F2 "3.3V" I L 7450 3700 60 
F3 "GND" I L 7450 4450 60 
F4 "SIN" I L 7450 3850 60 
F5 "LAT" I L 7450 4150 60 
F6 "BLANK" I L 7450 4300 60 
F7 "SOUT" O R 8300 3850 60 
F8 "SCLK" I L 7450 4000 60 
F9 "5V" I L 7450 3550 60 
$EndSheet
$Sheet
S 5800 3450 850  1100
U 5B3EA160
F0 "Led-Driver3" 60
F1 "leddriver.sch" 60
F2 "3.3V" I L 5800 3700 60 
F3 "GND" I L 5800 4450 60 
F4 "SIN" I L 5800 3850 60 
F5 "LAT" I L 5800 4150 60 
F6 "BLANK" I L 5800 4300 60 
F7 "SOUT" O R 6650 3850 60 
F8 "SCLK" I L 5800 4000 60 
F9 "5V" I L 5800 3550 60 
$EndSheet
$Sheet
S 4150 3450 850  1100
U 5B3E98F7
F0 "Led-Driver2" 60
F1 "leddriver.sch" 60
F2 "3.3V" I L 4150 3700 60 
F3 "GND" I L 4150 4450 60 
F4 "SIN" I L 4150 3850 60 
F5 "LAT" I L 4150 4150 60 
F6 "BLANK" I L 4150 4300 60 
F7 "SOUT" O R 5000 3850 60 
F8 "SCLK" I L 4150 4000 60 
F9 "5V" I L 4150 3550 60 
$EndSheet
Wire Wire Line
	3350 3850 4150 3850
Wire Wire Line
	5000 3850 5800 3850
Wire Wire Line
	6650 3850 7450 3850
$Comp
L +5V #PWR010
U 1 1 5B3FC90C
P 4000 3550
F 0 "#PWR010" H 4000 3400 50  0001 C CNN
F 1 "+5V" H 4000 3690 50  0000 C CNN
F 2 "" H 4000 3550 50  0001 C CNN
F 3 "" H 4000 3550 50  0001 C CNN
	1    4000 3550
	1    0    0    -1  
$EndComp
$Comp
L +5V #PWR011
U 1 1 5B3FC9DB
P 5650 3550
F 0 "#PWR011" H 5650 3400 50  0001 C CNN
F 1 "+5V" H 5650 3690 50  0000 C CNN
F 2 "" H 5650 3550 50  0001 C CNN
F 3 "" H 5650 3550 50  0001 C CNN
	1    5650 3550
	1    0    0    -1  
$EndComp
$Comp
L +5V #PWR012
U 1 1 5B3FCAA9
P 7300 3550
F 0 "#PWR012" H 7300 3400 50  0001 C CNN
F 1 "+5V" H 7300 3690 50  0000 C CNN
F 2 "" H 7300 3550 50  0001 C CNN
F 3 "" H 7300 3550 50  0001 C CNN
	1    7300 3550
	1    0    0    -1  
$EndComp
Wire Wire Line
	7300 3550 7450 3550
Wire Wire Line
	5650 3550 5800 3550
Wire Wire Line
	4000 3550 4150 3550
$Comp
L CONN_01X08 P2
U 1 1 5B414056
P 5450 2250
F 0 "P2" H 5450 2700 50  0000 C CNN
F 1 "CONN_01X08" V 5550 2250 50  0000 C CNN
F 2 "Pin_Headers:Pin_Header_Straight_1x08_Pitch2.54mm" H 5450 2250 50  0001 C CNN
F 3 "" H 5450 2250 50  0000 C CNN
	1    5450 2250
	-1   0    0    -1  
$EndComp
Text Label 4800 1900 2    60   ~ 0
+5V
Text Label 4800 2000 2    60   ~ 0
GND
Text Label 5650 1900 0    60   ~ 0
+3.3V
Text Label 5650 2000 0    60   ~ 0
D8
Text Label 5650 2100 0    60   ~ 0
D7
Text Label 5650 2200 0    60   ~ 0
D6
Text Label 5650 2300 0    60   ~ 0
D5
Text Label 5650 2400 0    60   ~ 0
D0
Text Label 5650 2500 0    60   ~ 0
A0
Text Label 5650 2600 0    60   ~ 0
RST
Text Notes 6000 2000 0    60   ~ 0
GPIO15
Text Notes 6000 2100 0    60   ~ 0
GPIO13
Text Notes 6000 2200 0    60   ~ 0
GPIO12
Text Notes 6000 2300 0    60   ~ 0
GPIO14
Text Notes 6000 2400 0    60   ~ 0
GPIO16
Text Notes 4900 1550 0    60   ~ 0
D1 Mini Shield
$Comp
L +5V #PWR013
U 1 1 5B414A11
P 4500 1900
F 0 "#PWR013" H 4500 1750 50  0001 C CNN
F 1 "+5V" H 4500 2040 50  0000 C CNN
F 2 "" H 4500 1900 50  0001 C CNN
F 3 "" H 4500 1900 50  0001 C CNN
	1    4500 1900
	1    0    0    -1  
$EndComp
Wire Wire Line
	4200 1900 4800 1900
$Comp
L GND #PWR014
U 1 1 5B414B61
P 4150 2000
F 0 "#PWR014" H 4150 1750 50  0001 C CNN
F 1 "GND" H 4150 1850 50  0000 C CNN
F 2 "" H 4150 2000 50  0001 C CNN
F 3 "" H 4150 2000 50  0001 C CNN
	1    4150 2000
	1    0    0    -1  
$EndComp
Wire Wire Line
	3850 2000 4800 2000
$Comp
L +3.3V #PWR015
U 1 1 5B414CB2
P 6150 1900
F 0 "#PWR015" H 6150 1750 50  0001 C CNN
F 1 "+3.3V" H 6150 2040 50  0000 C CNN
F 2 "" H 6150 1900 50  0001 C CNN
F 3 "" H 6150 1900 50  0001 C CNN
	1    6150 1900
	1    0    0    -1  
$EndComp
Wire Wire Line
	5650 1900 6500 1900
$Comp
L PWR_FLAG #FLG016
U 1 1 5B4152DE
P 6500 1900
F 0 "#FLG016" H 6500 1975 50  0001 C CNN
F 1 "PWR_FLAG" H 6500 2050 50  0000 C CNN
F 2 "" H 6500 1900 50  0001 C CNN
F 3 "" H 6500 1900 50  0001 C CNN
	1    6500 1900
	1    0    0    -1  
$EndComp
Connection ~ 6150 1900
$Comp
L PWR_FLAG #FLG017
U 1 1 5B415430
P 4200 1900
F 0 "#FLG017" H 4200 1975 50  0001 C CNN
F 1 "PWR_FLAG" H 4200 2050 50  0000 C CNN
F 2 "" H 4200 1900 50  0001 C CNN
F 3 "" H 4200 1900 50  0001 C CNN
	1    4200 1900
	1    0    0    -1  
$EndComp
Connection ~ 4500 1900
$Comp
L PWR_FLAG #FLG018
U 1 1 5B415583
P 3850 2000
F 0 "#FLG018" H 3850 2075 50  0001 C CNN
F 1 "PWR_FLAG" H 3850 2150 50  0000 C CNN
F 2 "" H 3850 2000 50  0001 C CNN
F 3 "" H 3850 2000 50  0001 C CNN
	1    3850 2000
	-1   0    0    1   
$EndComp
Connection ~ 4150 2000
NoConn ~ 5650 2400
NoConn ~ 5650 2600
NoConn ~ 5650 2500
Wire Wire Line
	5650 2000 6450 2000
Wire Wire Line
	5650 2100 6450 2100
Wire Wire Line
	5650 2200 6450 2200
Wire Wire Line
	5650 2300 6450 2300
$Comp
L Conn_01x02 P1
U 1 1 5B416617
P 5000 1900
F 0 "P1" H 5000 2000 50  0000 C CNN
F 1 "Conn_01x02" V 5100 1550 50  0000 C CNN
F 2 "Pin_Headers:Pin_Header_Straight_1x02_Pitch2.54mm" H 5000 1900 50  0001 C CNN
F 3 "" H 5000 1900 50  0001 C CNN
	1    5000 1900
	1    0    0    -1  
$EndComp
$EndSCHEMATC
