EESchema Schematic File Version 2
LIBS:power
LIBS:device
LIBS:switches
LIBS:relays
LIBS:motors
LIBS:transistors
LIBS:conn
LIBS:linear
LIBS:regul
LIBS:74xx
LIBS:cmos4000
LIBS:adc-dac
LIBS:memory
LIBS:xilinx
LIBS:microcontrollers
LIBS:dsp
LIBS:microchip
LIBS:analog_switches
LIBS:motorola
LIBS:texas
LIBS:intel
LIBS:audio
LIBS:interface
LIBS:digital-audio
LIBS:philips
LIBS:display
LIBS:cypress
LIBS:siliconi
LIBS:opto
LIBS:atmel
LIBS:contrib
LIBS:valves
LIBS:myparts
LIBS:niklas-cache
EELAYER 25 0
EELAYER END
$Descr A4 11693 8268
encoding utf-8
Sheet 1 2
Title "LEDs"
Date "2018-07-01"
Rev "1.0"
Comp ""
Comment1 ""
Comment2 ""
Comment3 ""
Comment4 ""
$EndDescr
$Comp
L +5V #PWR20
U 1 1 5B336FAD
P 2950 1000
F 0 "#PWR20" H 2950 850 50  0001 C CNN
F 1 "+5V" H 2950 1140 50  0000 C CNN
F 2 "" H 2950 1000 50  0001 C CNN
F 3 "" H 2950 1000 50  0001 C CNN
	1    2950 1000
	1    0    0    -1  
$EndComp
$Comp
L GND #PWR1
U 1 1 5B336FC1
P 1100 1000
F 0 "#PWR1" H 1100 750 50  0001 C CNN
F 1 "GND" H 1100 850 50  0000 C CNN
F 2 "" H 1100 1000 50  0001 C CNN
F 3 "" H 1100 1000 50  0001 C CNN
	1    1100 1000
	1    0    0    -1  
$EndComp
$Comp
L TLC59282 IC1
U 1 1 5B3497C7
P 2300 1500
F 0 "IC1" H 2300 800 60  0000 C CNN
F 1 "TLC59282" H 2250 2100 60  0000 C CNN
F 2 "Housings_SSOP:QSOP-24_3.9x8.7mm_Pitch0.635mm" H 1950 2150 60  0001 C CNN
F 3 "" H 1950 2150 60  0001 C CNN
	1    2300 1500
	1    0    0    -1  
$EndComp
$Comp
L PWR_FLAG #FLG2
U 1 1 5B3499AC
P 6650 6150
F 0 "#FLG2" H 6650 6225 50  0001 C CNN
F 1 "PWR_FLAG" H 6650 6300 50  0000 C CNN
F 2 "" H 6650 6150 50  0001 C CNN
F 3 "" H 6650 6150 50  0001 C CNN
	1    6650 6150
	-1   0    0    1   
$EndComp
$Comp
L PWR_FLAG #FLG1
U 1 1 5B3499C1
P 6650 5650
F 0 "#FLG1" H 6650 5725 50  0001 C CNN
F 1 "PWR_FLAG" H 6650 5800 50  0000 C CNN
F 2 "" H 6650 5650 50  0001 C CNN
F 3 "" H 6650 5650 50  0001 C CNN
	1    6650 5650
	1    0    0    -1  
$EndComp
$Comp
L LED D1
U 1 1 5B349A4E
P 1400 7100
F 0 "D1" H 1400 7200 50  0000 C CNN
F 1 "LED" H 1400 7000 50  0000 C CNN
F 2 "LEDs:LED_1206_HandSoldering" H 1400 7100 50  0001 C CNN
F 3 "" H 1400 7100 50  0001 C CNN
	1    1400 7100
	-1   0    0    1   
$EndComp
Text GLabel 1500 1400 0    60   Output ~ 0
OUT0
Text GLabel 1500 1500 0    60   Output ~ 0
OUT1
Text GLabel 1500 1600 0    60   Output ~ 0
OUT2
Text GLabel 1500 1700 0    60   Output ~ 0
OUT3
Text GLabel 1500 1800 0    60   Output ~ 0
OUT4
Text GLabel 1500 1900 0    60   Output ~ 0
OUT5
Text GLabel 1500 2000 0    60   Output ~ 0
OUT6
Text GLabel 1500 2100 0    60   Output ~ 0
OUT7
Text GLabel 3100 2100 2    60   Output ~ 0
OUT8
Text GLabel 3100 2000 2    60   Output ~ 0
OUT9
Text GLabel 3100 1900 2    60   Output ~ 0
OUT10
Text GLabel 3100 1800 2    60   Output ~ 0
OUT11
Text GLabel 3100 1700 2    60   Output ~ 0
OUT12
Text GLabel 3100 1600 2    60   Output ~ 0
OUT13
Text GLabel 3100 1500 2    60   Output ~ 0
OUT14
Text GLabel 3100 1400 2    60   Output ~ 0
OUT15
Text GLabel 1200 7100 0    60   Input ~ 0
OUT0
$Comp
L GND #PWR2
U 1 1 5B34A2DD
P 1650 7100
F 0 "#PWR2" H 1650 6850 50  0001 C CNN
F 1 "GND" H 1650 6950 50  0000 C CNN
F 2 "" H 1650 7100 50  0001 C CNN
F 3 "" H 1650 7100 50  0001 C CNN
	1    1650 7100
	0    -1   -1   0   
$EndComp
$Comp
L LED D3
U 1 1 5B34A366
P 1400 6800
F 0 "D3" H 1400 6900 50  0000 C CNN
F 1 "LED" H 1400 6700 50  0000 C CNN
F 2 "LEDs:LED_1206_HandSoldering" H 1400 6800 50  0001 C CNN
F 3 "" H 1400 6800 50  0001 C CNN
	1    1400 6800
	-1   0    0    1   
$EndComp
Text GLabel 1200 6800 0    60   Input ~ 0
OUT1
$Comp
L GND #PWR5
U 1 1 5B34A36E
P 1650 6800
F 0 "#PWR5" H 1650 6550 50  0001 C CNN
F 1 "GND" H 1650 6650 50  0000 C CNN
F 2 "" H 1650 6800 50  0001 C CNN
F 3 "" H 1650 6800 50  0001 C CNN
	1    1650 6800
	0    -1   -1   0   
$EndComp
$Comp
L LED D5
U 1 1 5B34A440
P 1400 6500
F 0 "D5" H 1400 6600 50  0000 C CNN
F 1 "LED" H 1400 6400 50  0000 C CNN
F 2 "LEDs:LED_1206_HandSoldering" H 1400 6500 50  0001 C CNN
F 3 "" H 1400 6500 50  0001 C CNN
	1    1400 6500
	-1   0    0    1   
$EndComp
Text GLabel 1200 6500 0    60   Input ~ 0
OUT2
$Comp
L GND #PWR8
U 1 1 5B34A448
P 1650 6500
F 0 "#PWR8" H 1650 6250 50  0001 C CNN
F 1 "GND" H 1650 6350 50  0000 C CNN
F 2 "" H 1650 6500 50  0001 C CNN
F 3 "" H 1650 6500 50  0001 C CNN
	1    1650 6500
	0    -1   -1   0   
$EndComp
$Comp
L LED D7
U 1 1 5B34A44F
P 1400 6200
F 0 "D7" H 1400 6300 50  0000 C CNN
F 1 "LED" H 1400 6100 50  0000 C CNN
F 2 "LEDs:LED_1206_HandSoldering" H 1400 6200 50  0001 C CNN
F 3 "" H 1400 6200 50  0001 C CNN
	1    1400 6200
	-1   0    0    1   
$EndComp
Text GLabel 1200 6200 0    60   Input ~ 0
OUT3
$Comp
L GND #PWR11
U 1 1 5B34A457
P 1650 6200
F 0 "#PWR11" H 1650 5950 50  0001 C CNN
F 1 "GND" H 1650 6050 50  0000 C CNN
F 2 "" H 1650 6200 50  0001 C CNN
F 3 "" H 1650 6200 50  0001 C CNN
	1    1650 6200
	0    -1   -1   0   
$EndComp
$Comp
L LED D9
U 1 1 5B34A562
P 1400 5900
F 0 "D9" H 1400 6000 50  0000 C CNN
F 1 "LED" H 1400 5800 50  0000 C CNN
F 2 "LEDs:LED_1206_HandSoldering" H 1400 5900 50  0001 C CNN
F 3 "" H 1400 5900 50  0001 C CNN
	1    1400 5900
	-1   0    0    1   
$EndComp
Text GLabel 1200 5900 0    60   Input ~ 0
OUT4
$Comp
L GND #PWR15
U 1 1 5B34A56A
P 1650 5900
F 0 "#PWR15" H 1650 5650 50  0001 C CNN
F 1 "GND" H 1650 5750 50  0000 C CNN
F 2 "" H 1650 5900 50  0001 C CNN
F 3 "" H 1650 5900 50  0001 C CNN
	1    1650 5900
	0    -1   -1   0   
$EndComp
$Comp
L LED D11
U 1 1 5B34A571
P 1400 5600
F 0 "D11" H 1400 5700 50  0000 C CNN
F 1 "LED" H 1400 5500 50  0000 C CNN
F 2 "LEDs:LED_1206_HandSoldering" H 1400 5600 50  0001 C CNN
F 3 "" H 1400 5600 50  0001 C CNN
	1    1400 5600
	-1   0    0    1   
$EndComp
Text GLabel 1200 5600 0    60   Input ~ 0
OUT5
$Comp
L GND #PWR18
U 1 1 5B34A579
P 1650 5600
F 0 "#PWR18" H 1650 5350 50  0001 C CNN
F 1 "GND" H 1650 5450 50  0000 C CNN
F 2 "" H 1650 5600 50  0001 C CNN
F 3 "" H 1650 5600 50  0001 C CNN
	1    1650 5600
	0    -1   -1   0   
$EndComp
$Comp
L LED D13
U 1 1 5B34A580
P 1400 5300
F 0 "D13" H 1400 5400 50  0000 C CNN
F 1 "LED" H 1400 5200 50  0000 C CNN
F 2 "LEDs:LED_1206_HandSoldering" H 1400 5300 50  0001 C CNN
F 3 "" H 1400 5300 50  0001 C CNN
	1    1400 5300
	-1   0    0    1   
$EndComp
Text GLabel 1200 5300 0    60   Input ~ 0
OUT6
$Comp
L GND #PWR22
U 1 1 5B34A588
P 1650 5300
F 0 "#PWR22" H 1650 5050 50  0001 C CNN
F 1 "GND" H 1650 5150 50  0000 C CNN
F 2 "" H 1650 5300 50  0001 C CNN
F 3 "" H 1650 5300 50  0001 C CNN
	1    1650 5300
	0    -1   -1   0   
$EndComp
$Comp
L LED D15
U 1 1 5B34A58F
P 1400 5000
F 0 "D15" H 1400 5100 50  0000 C CNN
F 1 "LED" H 1400 4900 50  0000 C CNN
F 2 "LEDs:LED_1206_HandSoldering" H 1400 5000 50  0001 C CNN
F 3 "" H 1400 5000 50  0001 C CNN
	1    1400 5000
	-1   0    0    1   
$EndComp
Text GLabel 1200 5000 0    60   Input ~ 0
OUT7
$Comp
L GND #PWR25
U 1 1 5B34A597
P 1650 5000
F 0 "#PWR25" H 1650 4750 50  0001 C CNN
F 1 "GND" H 1650 4850 50  0000 C CNN
F 2 "" H 1650 5000 50  0001 C CNN
F 3 "" H 1650 5000 50  0001 C CNN
	1    1650 5000
	0    -1   -1   0   
$EndComp
$Comp
L LED D2
U 1 1 5B34A9F4
P 1400 4700
F 0 "D2" H 1400 4800 50  0000 C CNN
F 1 "LED" H 1400 4600 50  0000 C CNN
F 2 "LEDs:LED_1206_HandSoldering" H 1400 4700 50  0001 C CNN
F 3 "" H 1400 4700 50  0001 C CNN
	1    1400 4700
	-1   0    0    1   
$EndComp
Text GLabel 1200 4700 0    60   Input ~ 0
OUT8
$Comp
L GND #PWR3
U 1 1 5B34A9FC
P 1650 4700
F 0 "#PWR3" H 1650 4450 50  0001 C CNN
F 1 "GND" H 1650 4550 50  0000 C CNN
F 2 "" H 1650 4700 50  0001 C CNN
F 3 "" H 1650 4700 50  0001 C CNN
	1    1650 4700
	0    -1   -1   0   
$EndComp
$Comp
L LED D4
U 1 1 5B34AA03
P 1400 4400
F 0 "D4" H 1400 4500 50  0000 C CNN
F 1 "LED" H 1400 4300 50  0000 C CNN
F 2 "LEDs:LED_1206_HandSoldering" H 1400 4400 50  0001 C CNN
F 3 "" H 1400 4400 50  0001 C CNN
	1    1400 4400
	-1   0    0    1   
$EndComp
Text GLabel 1200 4400 0    60   Input ~ 0
OUT9
$Comp
L GND #PWR6
U 1 1 5B34AA0B
P 1650 4400
F 0 "#PWR6" H 1650 4150 50  0001 C CNN
F 1 "GND" H 1650 4250 50  0000 C CNN
F 2 "" H 1650 4400 50  0001 C CNN
F 3 "" H 1650 4400 50  0001 C CNN
	1    1650 4400
	0    -1   -1   0   
$EndComp
$Comp
L LED D6
U 1 1 5B34AA12
P 1400 4100
F 0 "D6" H 1400 4200 50  0000 C CNN
F 1 "LED" H 1400 4000 50  0000 C CNN
F 2 "LEDs:LED_1206_HandSoldering" H 1400 4100 50  0001 C CNN
F 3 "" H 1400 4100 50  0001 C CNN
	1    1400 4100
	-1   0    0    1   
$EndComp
Text GLabel 1200 4100 0    60   Input ~ 0
OUT10
$Comp
L GND #PWR9
U 1 1 5B34AA1A
P 1650 4100
F 0 "#PWR9" H 1650 3850 50  0001 C CNN
F 1 "GND" H 1650 3950 50  0000 C CNN
F 2 "" H 1650 4100 50  0001 C CNN
F 3 "" H 1650 4100 50  0001 C CNN
	1    1650 4100
	0    -1   -1   0   
$EndComp
$Comp
L LED D8
U 1 1 5B34AA21
P 1400 3800
F 0 "D8" H 1400 3900 50  0000 C CNN
F 1 "LED" H 1400 3700 50  0000 C CNN
F 2 "LEDs:LED_1206_HandSoldering" H 1400 3800 50  0001 C CNN
F 3 "" H 1400 3800 50  0001 C CNN
	1    1400 3800
	-1   0    0    1   
$EndComp
Text GLabel 1200 3800 0    60   Input ~ 0
OUT11
$Comp
L GND #PWR12
U 1 1 5B34AA29
P 1650 3800
F 0 "#PWR12" H 1650 3550 50  0001 C CNN
F 1 "GND" H 1650 3650 50  0000 C CNN
F 2 "" H 1650 3800 50  0001 C CNN
F 3 "" H 1650 3800 50  0001 C CNN
	1    1650 3800
	0    -1   -1   0   
$EndComp
$Comp
L LED D10
U 1 1 5B34AA30
P 1400 3500
F 0 "D10" H 1400 3600 50  0000 C CNN
F 1 "LED" H 1400 3400 50  0000 C CNN
F 2 "LEDs:LED_1206_HandSoldering" H 1400 3500 50  0001 C CNN
F 3 "" H 1400 3500 50  0001 C CNN
	1    1400 3500
	-1   0    0    1   
$EndComp
Text GLabel 1200 3500 0    60   Input ~ 0
OUT12
$Comp
L GND #PWR16
U 1 1 5B34AA38
P 1650 3500
F 0 "#PWR16" H 1650 3250 50  0001 C CNN
F 1 "GND" H 1650 3350 50  0000 C CNN
F 2 "" H 1650 3500 50  0001 C CNN
F 3 "" H 1650 3500 50  0001 C CNN
	1    1650 3500
	0    -1   -1   0   
$EndComp
$Comp
L LED D12
U 1 1 5B34AA3F
P 1400 3200
F 0 "D12" H 1400 3300 50  0000 C CNN
F 1 "LED" H 1400 3100 50  0000 C CNN
F 2 "LEDs:LED_1206_HandSoldering" H 1400 3200 50  0001 C CNN
F 3 "" H 1400 3200 50  0001 C CNN
	1    1400 3200
	-1   0    0    1   
$EndComp
Text GLabel 1200 3200 0    60   Input ~ 0
OUT13
$Comp
L GND #PWR19
U 1 1 5B34AA47
P 1650 3200
F 0 "#PWR19" H 1650 2950 50  0001 C CNN
F 1 "GND" H 1650 3050 50  0000 C CNN
F 2 "" H 1650 3200 50  0001 C CNN
F 3 "" H 1650 3200 50  0001 C CNN
	1    1650 3200
	0    -1   -1   0   
$EndComp
$Comp
L LED D14
U 1 1 5B34AA4E
P 1400 2900
F 0 "D14" H 1400 3000 50  0000 C CNN
F 1 "LED" H 1400 2800 50  0000 C CNN
F 2 "LEDs:LED_1206_HandSoldering" H 1400 2900 50  0001 C CNN
F 3 "" H 1400 2900 50  0001 C CNN
	1    1400 2900
	-1   0    0    1   
$EndComp
Text GLabel 1200 2900 0    60   Input ~ 0
OUT14
$Comp
L GND #PWR23
U 1 1 5B34AA56
P 1650 2900
F 0 "#PWR23" H 1650 2650 50  0001 C CNN
F 1 "GND" H 1650 2750 50  0000 C CNN
F 2 "" H 1650 2900 50  0001 C CNN
F 3 "" H 1650 2900 50  0001 C CNN
	1    1650 2900
	0    -1   -1   0   
$EndComp
$Comp
L LED D16
U 1 1 5B34AA5D
P 1400 2600
F 0 "D16" H 1400 2700 50  0000 C CNN
F 1 "LED" H 1400 2500 50  0000 C CNN
F 2 "LEDs:LED_1206_HandSoldering" H 1400 2600 50  0001 C CNN
F 3 "" H 1400 2600 50  0001 C CNN
	1    1400 2600
	-1   0    0    1   
$EndComp
Text GLabel 1200 2600 0    60   Input ~ 0
OUT15
$Comp
L GND #PWR26
U 1 1 5B34AA65
P 1650 2600
F 0 "#PWR26" H 1650 2350 50  0001 C CNN
F 1 "GND" H 1650 2450 50  0000 C CNN
F 2 "" H 1650 2600 50  0001 C CNN
F 3 "" H 1650 2600 50  0001 C CNN
	1    1650 2600
	0    -1   -1   0   
$EndComp
$Comp
L GND #PWR28
U 1 1 5B34ADC9
P 3650 1300
F 0 "#PWR28" H 3650 1050 50  0001 C CNN
F 1 "GND" H 3650 1150 50  0000 C CNN
F 2 "" H 3650 1300 50  0001 C CNN
F 3 "" H 3650 1300 50  0001 C CNN
	1    3650 1300
	1    0    0    -1  
$EndComp
$Comp
L +5V #PWR49
U 1 1 5B3524FF
P 6350 900
F 0 "#PWR49" H 6350 750 50  0001 C CNN
F 1 "+5V" H 6350 1040 50  0000 C CNN
F 2 "" H 6350 900 50  0001 C CNN
F 3 "" H 6350 900 50  0001 C CNN
	1    6350 900 
	1    0    0    -1  
$EndComp
$Comp
L GND #PWR31
U 1 1 5B352505
P 4250 900
F 0 "#PWR31" H 4250 650 50  0001 C CNN
F 1 "GND" H 4250 750 50  0000 C CNN
F 2 "" H 4250 900 50  0001 C CNN
F 3 "" H 4250 900 50  0001 C CNN
	1    4250 900 
	1    0    0    -1  
$EndComp
$Comp
L TLC59282 IC2
U 1 1 5B35250B
P 5700 1400
F 0 "IC2" H 5700 700 60  0000 C CNN
F 1 "TLC59282" H 5650 2000 60  0000 C CNN
F 2 "Housings_SSOP:QSOP-24_3.9x8.7mm_Pitch0.635mm" H 5350 2050 60  0001 C CNN
F 3 "" H 5350 2050 60  0001 C CNN
	1    5700 1400
	1    0    0    -1  
$EndComp
$Comp
L LED D17
U 1 1 5B352520
P 4600 4650
F 0 "D17" H 4600 4750 50  0000 C CNN
F 1 "LED" H 4600 4550 50  0000 C CNN
F 2 "LEDs:LED_1206_HandSoldering" H 4600 4650 50  0001 C CNN
F 3 "" H 4600 4650 50  0001 C CNN
	1    4600 4650
	0    -1   -1   0   
$EndComp
Text GLabel 4900 1300 0    60   Output ~ 0
OUT0_B
Text GLabel 4900 1400 0    60   Output ~ 0
OUT1_B
Text GLabel 4900 1500 0    60   Output ~ 0
OUT2_B
Text GLabel 4900 1600 0    60   Output ~ 0
OUT3_B
Text GLabel 4900 1700 0    60   Output ~ 0
OUT4_B
Text GLabel 4900 1800 0    60   Output ~ 0
OUT5_B
Text GLabel 4900 1900 0    60   Output ~ 0
OUT6_B
Text GLabel 4900 2000 0    60   Output ~ 0
OUT7_B
Text GLabel 6500 2000 2    60   Output ~ 0
OUT8_B
Text GLabel 6500 1900 2    60   Output ~ 0
OUT9_B
Text GLabel 6500 1800 2    60   Output ~ 0
OUT10_B
Text GLabel 6500 1700 2    60   Output ~ 0
OUT11_B
Text GLabel 6500 1600 2    60   Output ~ 0
OUT12_B
Text GLabel 6500 1500 2    60   Output ~ 0
OUT13_B
Text GLabel 6500 1400 2    60   Output ~ 0
OUT14_B
Text GLabel 6500 1300 2    60   Output ~ 0
OUT15_B
Text GLabel 4600 2800 1    60   Input ~ 0
OUT0_B
$Comp
L GND #PWR33
U 1 1 5B352548
P 4600 3550
F 0 "#PWR33" H 4600 3300 50  0001 C CNN
F 1 "GND" H 4600 3400 50  0000 C CNN
F 2 "" H 4600 3550 50  0001 C CNN
F 3 "" H 4600 3550 50  0001 C CNN
	1    4600 3550
	1    0    0    -1  
$EndComp
$Comp
L LED D19
U 1 1 5B35254F
P 6850 3200
F 0 "D19" H 6850 3300 50  0000 C CNN
F 1 "LED" H 6850 3100 50  0000 C CNN
F 2 "LEDs:LED_1206_HandSoldering" H 6850 3200 50  0001 C CNN
F 3 "" H 6850 3200 50  0001 C CNN
	1    6850 3200
	0    -1   -1   0   
$EndComp
Text GLabel 4900 2800 1    60   Input ~ 0
OUT1_B
$Comp
L GND #PWR36
U 1 1 5B352557
P 4900 3550
F 0 "#PWR36" H 4900 3300 50  0001 C CNN
F 1 "GND" H 4900 3400 50  0000 C CNN
F 2 "" H 4900 3550 50  0001 C CNN
F 3 "" H 4900 3550 50  0001 C CNN
	1    4900 3550
	1    0    0    -1  
$EndComp
$Comp
L LED D21
U 1 1 5B35255E
P 6200 3200
F 0 "D21" H 6200 3300 50  0000 C CNN
F 1 "LED" H 6200 3100 50  0000 C CNN
F 2 "LEDs:LED_1206_HandSoldering" H 6200 3200 50  0001 C CNN
F 3 "" H 6200 3200 50  0001 C CNN
	1    6200 3200
	0    -1   -1   0   
$EndComp
Text GLabel 5250 2800 1    60   Input ~ 0
OUT2_B
$Comp
L GND #PWR39
U 1 1 5B352566
P 5250 3550
F 0 "#PWR39" H 5250 3300 50  0001 C CNN
F 1 "GND" H 5250 3400 50  0000 C CNN
F 2 "" H 5250 3550 50  0001 C CNN
F 3 "" H 5250 3550 50  0001 C CNN
	1    5250 3550
	1    0    0    -1  
$EndComp
$Comp
L LED D23
U 1 1 5B35256D
P 6550 3200
F 0 "D23" H 6550 3300 50  0000 C CNN
F 1 "LED" H 6550 3100 50  0000 C CNN
F 2 "LEDs:LED_1206_HandSoldering" H 6550 3200 50  0001 C CNN
F 3 "" H 6550 3200 50  0001 C CNN
	1    6550 3200
	0    -1   -1   0   
$EndComp
Text GLabel 5550 2800 1    60   Input ~ 0
OUT3_B
$Comp
L GND #PWR42
U 1 1 5B352575
P 5550 3550
F 0 "#PWR42" H 5550 3300 50  0001 C CNN
F 1 "GND" H 5550 3400 50  0000 C CNN
F 2 "" H 5550 3550 50  0001 C CNN
F 3 "" H 5550 3550 50  0001 C CNN
	1    5550 3550
	1    0    0    -1  
$EndComp
$Comp
L LED D25
U 1 1 5B35257C
P 5900 3200
F 0 "D25" H 5900 3300 50  0000 C CNN
F 1 "LED" H 5900 3100 50  0000 C CNN
F 2 "LEDs:LED_1206_HandSoldering" H 5900 3200 50  0001 C CNN
F 3 "" H 5900 3200 50  0001 C CNN
	1    5900 3200
	0    -1   -1   0   
$EndComp
Text GLabel 5900 2800 1    60   Input ~ 0
OUT4_B
$Comp
L GND #PWR45
U 1 1 5B352584
P 5900 3550
F 0 "#PWR45" H 5900 3300 50  0001 C CNN
F 1 "GND" H 5900 3400 50  0000 C CNN
F 2 "" H 5900 3550 50  0001 C CNN
F 3 "" H 5900 3550 50  0001 C CNN
	1    5900 3550
	1    0    0    -1  
$EndComp
$Comp
L LED D27
U 1 1 5B35258B
P 5550 3200
F 0 "D27" H 5550 3300 50  0000 C CNN
F 1 "LED" H 5550 3100 50  0000 C CNN
F 2 "LEDs:LED_1206_HandSoldering" H 5550 3200 50  0001 C CNN
F 3 "" H 5550 3200 50  0001 C CNN
	1    5550 3200
	0    -1   -1   0   
$EndComp
Text GLabel 6200 2800 1    60   Input ~ 0
OUT5_B
$Comp
L GND #PWR47
U 1 1 5B352593
P 6200 3550
F 0 "#PWR47" H 6200 3300 50  0001 C CNN
F 1 "GND" H 6200 3400 50  0000 C CNN
F 2 "" H 6200 3550 50  0001 C CNN
F 3 "" H 6200 3550 50  0001 C CNN
	1    6200 3550
	1    0    0    -1  
$EndComp
$Comp
L LED D29
U 1 1 5B35259A
P 5250 3200
F 0 "D29" H 5250 3300 50  0000 C CNN
F 1 "LED" H 5250 3100 50  0000 C CNN
F 2 "LEDs:LED_1206_HandSoldering" H 5250 3200 50  0001 C CNN
F 3 "" H 5250 3200 50  0001 C CNN
	1    5250 3200
	0    -1   -1   0   
$EndComp
Text GLabel 6550 2800 1    60   Input ~ 0
OUT6_B
$Comp
L GND #PWR50
U 1 1 5B3525A2
P 6550 3550
F 0 "#PWR50" H 6550 3300 50  0001 C CNN
F 1 "GND" H 6550 3400 50  0000 C CNN
F 2 "" H 6550 3550 50  0001 C CNN
F 3 "" H 6550 3550 50  0001 C CNN
	1    6550 3550
	1    0    0    -1  
$EndComp
$Comp
L LED D31
U 1 1 5B3525A9
P 4900 3200
F 0 "D31" H 4900 3300 50  0000 C CNN
F 1 "LED" H 4900 3100 50  0000 C CNN
F 2 "LEDs:LED_1206_HandSoldering" H 4900 3200 50  0001 C CNN
F 3 "" H 4900 3200 50  0001 C CNN
	1    4900 3200
	0    -1   -1   0   
$EndComp
Text GLabel 6850 2800 1    60   Input ~ 0
OUT7_B
$Comp
L GND #PWR52
U 1 1 5B3525B1
P 6850 3550
F 0 "#PWR52" H 6850 3300 50  0001 C CNN
F 1 "GND" H 6850 3400 50  0000 C CNN
F 2 "" H 6850 3550 50  0001 C CNN
F 3 "" H 6850 3550 50  0001 C CNN
	1    6850 3550
	1    0    0    -1  
$EndComp
$Comp
L LED D18
U 1 1 5B3525B8
P 4600 3200
F 0 "D18" H 4600 3300 50  0000 C CNN
F 1 "LED" H 4600 3100 50  0000 C CNN
F 2 "LEDs:LED_1206_HandSoldering" H 4600 3200 50  0001 C CNN
F 3 "" H 4600 3200 50  0001 C CNN
	1    4600 3200
	0    -1   -1   0   
$EndComp
Text GLabel 4600 4250 1    60   Input ~ 0
OUT8_B
$Comp
L GND #PWR34
U 1 1 5B3525C0
P 4600 5000
F 0 "#PWR34" H 4600 4750 50  0001 C CNN
F 1 "GND" H 4600 4850 50  0000 C CNN
F 2 "" H 4600 5000 50  0001 C CNN
F 3 "" H 4600 5000 50  0001 C CNN
	1    4600 5000
	1    0    0    -1  
$EndComp
$Comp
L LED D20
U 1 1 5B3525C7
P 4900 4650
F 0 "D20" H 4900 4750 50  0000 C CNN
F 1 "LED" H 4900 4550 50  0000 C CNN
F 2 "LEDs:LED_1206_HandSoldering" H 4900 4650 50  0001 C CNN
F 3 "" H 4900 4650 50  0001 C CNN
	1    4900 4650
	0    -1   -1   0   
$EndComp
Text GLabel 4900 4250 1    60   Input ~ 0
OUT9_B
$Comp
L GND #PWR37
U 1 1 5B3525CF
P 4900 5000
F 0 "#PWR37" H 4900 4750 50  0001 C CNN
F 1 "GND" H 4900 4850 50  0000 C CNN
F 2 "" H 4900 5000 50  0001 C CNN
F 3 "" H 4900 5000 50  0001 C CNN
	1    4900 5000
	1    0    0    -1  
$EndComp
$Comp
L LED D22
U 1 1 5B3525D6
P 5250 4650
F 0 "D22" H 5250 4750 50  0000 C CNN
F 1 "LED" H 5250 4550 50  0000 C CNN
F 2 "LEDs:LED_1206_HandSoldering" H 5250 4650 50  0001 C CNN
F 3 "" H 5250 4650 50  0001 C CNN
	1    5250 4650
	0    -1   -1   0   
$EndComp
Text GLabel 5250 4250 1    60   Input ~ 0
OUT10_B
$Comp
L GND #PWR40
U 1 1 5B3525DE
P 5250 5000
F 0 "#PWR40" H 5250 4750 50  0001 C CNN
F 1 "GND" H 5250 4850 50  0000 C CNN
F 2 "" H 5250 5000 50  0001 C CNN
F 3 "" H 5250 5000 50  0001 C CNN
	1    5250 5000
	1    0    0    -1  
$EndComp
$Comp
L LED D24
U 1 1 5B3525E5
P 5550 4650
F 0 "D24" H 5550 4750 50  0000 C CNN
F 1 "LED" H 5550 4550 50  0000 C CNN
F 2 "LEDs:LED_1206_HandSoldering" H 5550 4650 50  0001 C CNN
F 3 "" H 5550 4650 50  0001 C CNN
	1    5550 4650
	0    -1   -1   0   
$EndComp
Text GLabel 5550 4250 1    60   Input ~ 0
OUT11_B
$Comp
L GND #PWR43
U 1 1 5B3525ED
P 5550 5000
F 0 "#PWR43" H 5550 4750 50  0001 C CNN
F 1 "GND" H 5550 4850 50  0000 C CNN
F 2 "" H 5550 5000 50  0001 C CNN
F 3 "" H 5550 5000 50  0001 C CNN
	1    5550 5000
	1    0    0    -1  
$EndComp
$Comp
L LED D26
U 1 1 5B3525F4
P 5900 4650
F 0 "D26" H 5900 4750 50  0000 C CNN
F 1 "LED" H 5900 4550 50  0000 C CNN
F 2 "LEDs:LED_1206_HandSoldering" H 5900 4650 50  0001 C CNN
F 3 "" H 5900 4650 50  0001 C CNN
	1    5900 4650
	0    -1   -1   0   
$EndComp
Text GLabel 5900 4250 1    60   Input ~ 0
OUT12_B
$Comp
L GND #PWR46
U 1 1 5B3525FC
P 5900 5000
F 0 "#PWR46" H 5900 4750 50  0001 C CNN
F 1 "GND" H 5900 4850 50  0000 C CNN
F 2 "" H 5900 5000 50  0001 C CNN
F 3 "" H 5900 5000 50  0001 C CNN
	1    5900 5000
	1    0    0    -1  
$EndComp
$Comp
L LED D28
U 1 1 5B352603
P 6200 4650
F 0 "D28" H 6200 4750 50  0000 C CNN
F 1 "LED" H 6200 4550 50  0000 C CNN
F 2 "LEDs:LED_1206_HandSoldering" H 6200 4650 50  0001 C CNN
F 3 "" H 6200 4650 50  0001 C CNN
	1    6200 4650
	0    -1   -1   0   
$EndComp
Text GLabel 6200 4250 1    60   Input ~ 0
OUT13_B
$Comp
L GND #PWR48
U 1 1 5B35260B
P 6200 5000
F 0 "#PWR48" H 6200 4750 50  0001 C CNN
F 1 "GND" H 6200 4850 50  0000 C CNN
F 2 "" H 6200 5000 50  0001 C CNN
F 3 "" H 6200 5000 50  0001 C CNN
	1    6200 5000
	1    0    0    -1  
$EndComp
$Comp
L LED D30
U 1 1 5B352612
P 6850 4650
F 0 "D30" H 6850 4750 50  0000 C CNN
F 1 "LED" H 6850 4550 50  0000 C CNN
F 2 "LEDs:LED_1206_HandSoldering" H 6850 4650 50  0001 C CNN
F 3 "" H 6850 4650 50  0001 C CNN
	1    6850 4650
	0    -1   -1   0   
$EndComp
Text GLabel 6550 4250 1    60   Input ~ 0
OUT14_B
$Comp
L GND #PWR53
U 1 1 5B35261A
P 6850 5000
F 0 "#PWR53" H 6850 4750 50  0001 C CNN
F 1 "GND" H 6850 4850 50  0000 C CNN
F 2 "" H 6850 5000 50  0001 C CNN
F 3 "" H 6850 5000 50  0001 C CNN
	1    6850 5000
	1    0    0    -1  
$EndComp
$Comp
L LED D32
U 1 1 5B352621
P 6550 4650
F 0 "D32" H 6550 4750 50  0000 C CNN
F 1 "LED" H 6550 4550 50  0000 C CNN
F 2 "LEDs:LED_1206_HandSoldering" H 6550 4650 50  0001 C CNN
F 3 "" H 6550 4650 50  0001 C CNN
	1    6550 4650
	0    -1   -1   0   
$EndComp
Text GLabel 6850 4250 1    60   Input ~ 0
OUT15_B
$Comp
L GND #PWR51
U 1 1 5B352629
P 6550 5000
F 0 "#PWR51" H 6550 4750 50  0001 C CNN
F 1 "GND" H 6550 4850 50  0000 C CNN
F 2 "" H 6550 5000 50  0001 C CNN
F 3 "" H 6550 5000 50  0001 C CNN
	1    6550 5000
	1    0    0    -1  
$EndComp
$Comp
L R R2
U 1 1 5B352630
P 7000 1000
F 0 "R2" V 7080 1000 50  0000 C CNN
F 1 "R" V 7000 1000 50  0000 C CNN
F 2 "Resistors_SMD:R_1206_HandSoldering" V 6930 1000 50  0001 C CNN
F 3 "" H 7000 1000 50  0001 C CNN
	1    7000 1000
	0    1    1    0   
$EndComp
$Comp
L GND #PWR56
U 1 1 5B352637
P 7150 1100
F 0 "#PWR56" H 7150 850 50  0001 C CNN
F 1 "GND" H 7150 950 50  0000 C CNN
F 2 "" H 7150 1100 50  0001 C CNN
F 3 "" H 7150 1100 50  0001 C CNN
	1    7150 1100
	1    0    0    -1  
$EndComp
$Comp
L +5V #PWR69
U 1 1 5B38EE5B
P 9800 800
F 0 "#PWR69" H 9800 650 50  0001 C CNN
F 1 "+5V" H 9800 940 50  0000 C CNN
F 2 "" H 9800 800 50  0001 C CNN
F 3 "" H 9800 800 50  0001 C CNN
	1    9800 800 
	1    0    0    -1  
$EndComp
$Comp
L GND #PWR57
U 1 1 5B38EE61
P 7650 800
F 0 "#PWR57" H 7650 550 50  0001 C CNN
F 1 "GND" H 7650 650 50  0000 C CNN
F 2 "" H 7650 800 50  0001 C CNN
F 3 "" H 7650 800 50  0001 C CNN
	1    7650 800 
	1    0    0    -1  
$EndComp
$Comp
L TLC59282 IC3
U 1 1 5B38EE67
P 9150 1300
F 0 "IC3" H 9150 600 60  0000 C CNN
F 1 "TLC59282" H 9100 1900 60  0000 C CNN
F 2 "Housings_SSOP:QSOP-24_3.9x8.7mm_Pitch0.635mm" H 8800 1950 60  0001 C CNN
F 3 "" H 8800 1950 60  0001 C CNN
	1    9150 1300
	1    0    0    -1  
$EndComp
Text GLabel 8350 1300 0    60   Output ~ 0
OUT1_C
Text GLabel 8350 1400 0    60   Output ~ 0
OUT2_C
Text GLabel 8350 1500 0    60   Output ~ 0
OUT3_C
Text GLabel 8350 1600 0    60   Output ~ 0
OUT4_C
Text GLabel 8350 1700 0    60   Output ~ 0
OUT5_C
Text GLabel 8350 1800 0    60   Output ~ 0
OUT6_C
Text GLabel 9950 1800 2    60   Output ~ 0
OUT9_C
Text GLabel 9950 1700 2    60   Output ~ 0
OUT10_C
Text GLabel 9950 1600 2    60   Output ~ 0
OUT11_C
Text GLabel 9950 1500 2    60   Output ~ 0
OUT12_C
Text GLabel 9950 1400 2    60   Output ~ 0
OUT13_C
Text GLabel 9950 1300 2    60   Output ~ 0
OUT14_C
$Comp
L LED D47
U 1 1 5B38EE9C
P 10250 2950
F 0 "D47" H 10250 3050 50  0000 C CNN
F 1 "LED" H 10250 2850 50  0000 C CNN
F 2 "LEDs:LED_1206_HandSoldering" H 10250 2950 50  0001 C CNN
F 3 "" H 10250 2950 50  0001 C CNN
	1    10250 2950
	0    -1   -1   0   
$EndComp
Text GLabel 8550 2550 1    60   Input ~ 0
OUT1_C
$Comp
L GND #PWR61
U 1 1 5B38EEA4
P 8550 3300
F 0 "#PWR61" H 8550 3050 50  0001 C CNN
F 1 "GND" H 8550 3150 50  0000 C CNN
F 2 "" H 8550 3300 50  0001 C CNN
F 3 "" H 8550 3300 50  0001 C CNN
	1    8550 3300
	1    0    0    -1  
$EndComp
$Comp
L LED D43
U 1 1 5B38EEAB
P 9550 2950
F 0 "D43" H 9550 3050 50  0000 C CNN
F 1 "LED" H 9550 2850 50  0000 C CNN
F 2 "LEDs:LED_1206_HandSoldering" H 9550 2950 50  0001 C CNN
F 3 "" H 9550 2950 50  0001 C CNN
	1    9550 2950
	0    -1   -1   0   
$EndComp
Text GLabel 8900 2550 1    60   Input ~ 0
OUT2_C
$Comp
L GND #PWR63
U 1 1 5B38EEB3
P 8900 3300
F 0 "#PWR63" H 8900 3050 50  0001 C CNN
F 1 "GND" H 8900 3150 50  0000 C CNN
F 2 "" H 8900 3300 50  0001 C CNN
F 3 "" H 8900 3300 50  0001 C CNN
	1    8900 3300
	1    0    0    -1  
$EndComp
$Comp
L LED D45
U 1 1 5B38EEBA
P 9900 2950
F 0 "D45" H 9900 3050 50  0000 C CNN
F 1 "LED" H 9900 2850 50  0000 C CNN
F 2 "LEDs:LED_1206_HandSoldering" H 9900 2950 50  0001 C CNN
F 3 "" H 9900 2950 50  0001 C CNN
	1    9900 2950
	0    -1   -1   0   
$EndComp
Text GLabel 9200 2550 1    60   Input ~ 0
OUT3_C
$Comp
L GND #PWR65
U 1 1 5B38EEC2
P 9200 3300
F 0 "#PWR65" H 9200 3050 50  0001 C CNN
F 1 "GND" H 9200 3150 50  0000 C CNN
F 2 "" H 9200 3300 50  0001 C CNN
F 3 "" H 9200 3300 50  0001 C CNN
	1    9200 3300
	1    0    0    -1  
$EndComp
$Comp
L LED D41
U 1 1 5B38EEC9
P 9200 2950
F 0 "D41" H 9200 3050 50  0000 C CNN
F 1 "LED" H 9200 2850 50  0000 C CNN
F 2 "LEDs:LED_1206_HandSoldering" H 9200 2950 50  0001 C CNN
F 3 "" H 9200 2950 50  0001 C CNN
	1    9200 2950
	0    -1   -1   0   
$EndComp
Text GLabel 9550 2550 1    60   Input ~ 0
OUT4_C
$Comp
L GND #PWR67
U 1 1 5B38EED1
P 9550 3300
F 0 "#PWR67" H 9550 3050 50  0001 C CNN
F 1 "GND" H 9550 3150 50  0000 C CNN
F 2 "" H 9550 3300 50  0001 C CNN
F 3 "" H 9550 3300 50  0001 C CNN
	1    9550 3300
	1    0    0    -1  
$EndComp
$Comp
L LED D39
U 1 1 5B38EED8
P 8900 2950
F 0 "D39" H 8900 3050 50  0000 C CNN
F 1 "LED" H 8900 2850 50  0000 C CNN
F 2 "LEDs:LED_1206_HandSoldering" H 8900 2950 50  0001 C CNN
F 3 "" H 8900 2950 50  0001 C CNN
	1    8900 2950
	0    -1   -1   0   
$EndComp
Text GLabel 9900 2550 1    60   Input ~ 0
OUT5_C
$Comp
L GND #PWR70
U 1 1 5B38EEE0
P 9900 3300
F 0 "#PWR70" H 9900 3050 50  0001 C CNN
F 1 "GND" H 9900 3150 50  0000 C CNN
F 2 "" H 9900 3300 50  0001 C CNN
F 3 "" H 9900 3300 50  0001 C CNN
	1    9900 3300
	1    0    0    -1  
$EndComp
$Comp
L LED D37
U 1 1 5B38EEE7
P 8550 2950
F 0 "D37" H 8550 3050 50  0000 C CNN
F 1 "LED" H 8550 2850 50  0000 C CNN
F 2 "LEDs:LED_1206_HandSoldering" H 8550 2950 50  0001 C CNN
F 3 "" H 8550 2950 50  0001 C CNN
	1    8550 2950
	0    -1   -1   0   
$EndComp
Text GLabel 10250 2550 1    60   Input ~ 0
OUT6_C
$Comp
L GND #PWR73
U 1 1 5B38EEEF
P 10250 3300
F 0 "#PWR73" H 10250 3050 50  0001 C CNN
F 1 "GND" H 10250 3150 50  0000 C CNN
F 2 "" H 10250 3300 50  0001 C CNN
F 3 "" H 10250 3300 50  0001 C CNN
	1    10250 3300
	1    0    0    -1  
$EndComp
$Comp
L LED D35
U 1 1 5B38EEF6
P 8250 2950
F 0 "D35" H 8250 3050 50  0000 C CNN
F 1 "LED" H 8250 2850 50  0000 C CNN
F 2 "LEDs:LED_1206_HandSoldering" H 8250 2950 50  0001 C CNN
F 3 "" H 8250 2950 50  0001 C CNN
	1    8250 2950
	0    -1   -1   0   
$EndComp
$Comp
L LED D36
U 1 1 5B38EF14
P 8250 4400
F 0 "D36" H 8250 4500 50  0000 C CNN
F 1 "LED" H 8250 4300 50  0000 C CNN
F 2 "LEDs:LED_1206_HandSoldering" H 8250 4400 50  0001 C CNN
F 3 "" H 8250 4400 50  0001 C CNN
	1    8250 4400
	0    -1   -1   0   
$EndComp
Text GLabel 8550 4000 1    60   Input ~ 0
OUT9_C
$Comp
L GND #PWR62
U 1 1 5B38EF1C
P 8550 4750
F 0 "#PWR62" H 8550 4500 50  0001 C CNN
F 1 "GND" H 8550 4600 50  0000 C CNN
F 2 "" H 8550 4750 50  0001 C CNN
F 3 "" H 8550 4750 50  0001 C CNN
	1    8550 4750
	1    0    0    -1  
$EndComp
$Comp
L LED D38
U 1 1 5B38EF23
P 8550 4400
F 0 "D38" H 8550 4500 50  0000 C CNN
F 1 "LED" H 8550 4300 50  0000 C CNN
F 2 "LEDs:LED_1206_HandSoldering" H 8550 4400 50  0001 C CNN
F 3 "" H 8550 4400 50  0001 C CNN
	1    8550 4400
	0    -1   -1   0   
$EndComp
Text GLabel 8900 4000 1    60   Input ~ 0
OUT10_C
$Comp
L GND #PWR64
U 1 1 5B38EF2B
P 8900 4750
F 0 "#PWR64" H 8900 4500 50  0001 C CNN
F 1 "GND" H 8900 4600 50  0000 C CNN
F 2 "" H 8900 4750 50  0001 C CNN
F 3 "" H 8900 4750 50  0001 C CNN
	1    8900 4750
	1    0    0    -1  
$EndComp
$Comp
L LED D40
U 1 1 5B38EF32
P 8900 4400
F 0 "D40" H 8900 4500 50  0000 C CNN
F 1 "LED" H 8900 4300 50  0000 C CNN
F 2 "LEDs:LED_1206_HandSoldering" H 8900 4400 50  0001 C CNN
F 3 "" H 8900 4400 50  0001 C CNN
	1    8900 4400
	0    -1   -1   0   
$EndComp
Text GLabel 9200 4000 1    60   Input ~ 0
OUT11_C
$Comp
L GND #PWR66
U 1 1 5B38EF3A
P 9200 4750
F 0 "#PWR66" H 9200 4500 50  0001 C CNN
F 1 "GND" H 9200 4600 50  0000 C CNN
F 2 "" H 9200 4750 50  0001 C CNN
F 3 "" H 9200 4750 50  0001 C CNN
	1    9200 4750
	1    0    0    -1  
$EndComp
$Comp
L LED D42
U 1 1 5B38EF41
P 9200 4400
F 0 "D42" H 9200 4500 50  0000 C CNN
F 1 "LED" H 9200 4300 50  0000 C CNN
F 2 "LEDs:LED_1206_HandSoldering" H 9200 4400 50  0001 C CNN
F 3 "" H 9200 4400 50  0001 C CNN
	1    9200 4400
	0    -1   -1   0   
$EndComp
Text GLabel 9550 4000 1    60   Input ~ 0
OUT12_C
$Comp
L GND #PWR68
U 1 1 5B38EF49
P 9550 4750
F 0 "#PWR68" H 9550 4500 50  0001 C CNN
F 1 "GND" H 9550 4600 50  0000 C CNN
F 2 "" H 9550 4750 50  0001 C CNN
F 3 "" H 9550 4750 50  0001 C CNN
	1    9550 4750
	1    0    0    -1  
$EndComp
$Comp
L LED D44
U 1 1 5B38EF50
P 9550 4400
F 0 "D44" H 9550 4500 50  0000 C CNN
F 1 "LED" H 9550 4300 50  0000 C CNN
F 2 "LEDs:LED_1206_HandSoldering" H 9550 4400 50  0001 C CNN
F 3 "" H 9550 4400 50  0001 C CNN
	1    9550 4400
	0    -1   -1   0   
$EndComp
Text GLabel 9900 4000 1    60   Input ~ 0
OUT13_C
$Comp
L GND #PWR71
U 1 1 5B38EF58
P 9900 4750
F 0 "#PWR71" H 9900 4500 50  0001 C CNN
F 1 "GND" H 9900 4600 50  0000 C CNN
F 2 "" H 9900 4750 50  0001 C CNN
F 3 "" H 9900 4750 50  0001 C CNN
	1    9900 4750
	1    0    0    -1  
$EndComp
$Comp
L LED D46
U 1 1 5B38EF5F
P 9900 4400
F 0 "D46" H 9900 4500 50  0000 C CNN
F 1 "LED" H 9900 4300 50  0000 C CNN
F 2 "LEDs:LED_1206_HandSoldering" H 9900 4400 50  0001 C CNN
F 3 "" H 9900 4400 50  0001 C CNN
	1    9900 4400
	0    -1   -1   0   
$EndComp
Text GLabel 10250 4000 1    60   Input ~ 0
OUT14_C
$Comp
L GND #PWR74
U 1 1 5B38EF76
P 10250 4750
F 0 "#PWR74" H 10250 4500 50  0001 C CNN
F 1 "GND" H 10250 4600 50  0000 C CNN
F 2 "" H 10250 4750 50  0001 C CNN
F 3 "" H 10250 4750 50  0001 C CNN
	1    10250 4750
	1    0    0    -1  
$EndComp
$Comp
L R R3
U 1 1 5B38EF7D
P 10400 900
F 0 "R3" V 10480 900 50  0000 C CNN
F 1 "R" V 10400 900 50  0000 C CNN
F 2 "Resistors_SMD:R_1206_HandSoldering" V 10330 900 50  0001 C CNN
F 3 "" H 10400 900 50  0001 C CNN
	1    10400 900 
	0    1    1    0   
$EndComp
$Comp
L GND #PWR76
U 1 1 5B38EF84
P 10550 950
F 0 "#PWR76" H 10550 700 50  0001 C CNN
F 1 "GND" H 10550 800 50  0000 C CNN
F 2 "" H 10550 950 50  0001 C CNN
F 3 "" H 10550 950 50  0001 C CNN
	1    10550 950 
	1    0    0    -1  
$EndComp
$Comp
L GND #PWR60
U 1 1 5B38EF0D
P 8250 4750
F 0 "#PWR60" H 8250 4500 50  0001 C CNN
F 1 "GND" H 8250 4600 50  0000 C CNN
F 2 "" H 8250 4750 50  0001 C CNN
F 3 "" H 8250 4750 50  0001 C CNN
	1    8250 4750
	1    0    0    -1  
$EndComp
$Comp
L LED D34
U 1 1 5B38EE6D
P 10250 4400
F 0 "D34" H 10250 4500 50  0000 C CNN
F 1 "LED" H 10250 4300 50  0000 C CNN
F 2 "LEDs:LED_1206_HandSoldering" H 10250 4400 50  0001 C CNN
F 3 "" H 10250 4400 50  0001 C CNN
	1    10250 4400
	0    -1   -1   0   
$EndComp
Text GLabel 8250 4000 1    60   Input ~ 0
OUT8_C
Text GLabel 9950 1900 2    60   Output ~ 0
OUT8_C
$Comp
L GND #PWR77
U 1 1 5B38EF67
P 10550 4750
F 0 "#PWR77" H 10550 4500 50  0001 C CNN
F 1 "GND" H 10550 4600 50  0000 C CNN
F 2 "" H 10550 4750 50  0001 C CNN
F 3 "" H 10550 4750 50  0001 C CNN
	1    10550 4750
	1    0    0    -1  
$EndComp
$Comp
L LED D48
U 1 1 5B38EF6E
P 10550 4400
F 0 "D48" H 10550 4500 50  0000 C CNN
F 1 "LED" H 10550 4300 50  0000 C CNN
F 2 "LEDs:LED_1206_HandSoldering" H 10550 4400 50  0001 C CNN
F 3 "" H 10550 4400 50  0001 C CNN
	1    10550 4400
	0    -1   -1   0   
$EndComp
Text GLabel 10550 4000 1    60   Input ~ 0
OUT15_C
Text GLabel 9950 1200 2    60   Output ~ 0
OUT15_C
$Comp
L GND #PWR59
U 1 1 5B38EE95
P 8250 3300
F 0 "#PWR59" H 8250 3050 50  0001 C CNN
F 1 "GND" H 8250 3150 50  0000 C CNN
F 2 "" H 8250 3300 50  0001 C CNN
F 3 "" H 8250 3300 50  0001 C CNN
	1    8250 3300
	1    0    0    -1  
$EndComp
Text GLabel 8250 2550 1    60   Input ~ 0
OUT0_C
Text GLabel 8350 1200 0    60   Output ~ 0
OUT0_C
NoConn ~ 8600 1900
$Comp
L +5V #PWR72
U 1 1 5B3957F4
P 9900 5250
F 0 "#PWR72" H 9900 5100 50  0001 C CNN
F 1 "+5V" H 9900 5390 50  0000 C CNN
F 2 "" H 9900 5250 50  0001 C CNN
F 3 "" H 9900 5250 50  0001 C CNN
	1    9900 5250
	1    0    0    -1  
$EndComp
$Comp
L GND #PWR58
U 1 1 5B3957FA
P 7750 5250
F 0 "#PWR58" H 7750 5000 50  0001 C CNN
F 1 "GND" H 7750 5100 50  0000 C CNN
F 2 "" H 7750 5250 50  0001 C CNN
F 3 "" H 7750 5250 50  0001 C CNN
	1    7750 5250
	1    0    0    -1  
$EndComp
$Comp
L TLC59282 IC4
U 1 1 5B395800
P 9250 5750
F 0 "IC4" H 9250 5050 60  0000 C CNN
F 1 "TLC59282" H 9200 6350 60  0000 C CNN
F 2 "Housings_SSOP:QSOP-24_3.9x8.7mm_Pitch0.635mm" H 8900 6400 60  0001 C CNN
F 3 "" H 8900 6400 60  0001 C CNN
	1    9250 5750
	1    0    0    -1  
$EndComp
Text GLabel 8450 5650 0    60   Output ~ 0
OUT0_D
Text GLabel 8450 5750 0    60   Output ~ 0
OUT1_D
Text GLabel 8450 5850 0    60   Output ~ 0
OUT2_D
Text GLabel 8450 5950 0    60   Output ~ 0
OUT3_D
Text GLabel 8450 6050 0    60   Output ~ 0
OUT4_D
Text GLabel 8450 6150 0    60   Output ~ 0
OUT5_D
Text GLabel 8450 6250 0    60   Output ~ 0
OUT6_D
Text GLabel 8450 6350 0    60   Output ~ 0
OUT7_D
Text GLabel 10050 6350 2    60   Output ~ 0
OUT8_D
Text GLabel 10050 6250 2    60   Output ~ 0
OUT9_D
Text GLabel 10050 6150 2    60   Output ~ 0
OUT10_D
Text GLabel 10050 6050 2    60   Output ~ 0
OUT11_D
Text GLabel 10050 5950 2    60   Output ~ 0
OUT12_D
Text GLabel 10050 5850 2    60   Output ~ 0
OUT13_D
Text GLabel 10050 5750 2    60   Output ~ 0
OUT14_D
Text GLabel 10050 5650 2    60   Output ~ 0
OUT15_D
$Comp
L R R4
U 1 1 5B395816
P 10250 5350
F 0 "R4" V 10330 5350 50  0000 C CNN
F 1 "R" V 10250 5350 50  0000 C CNN
F 2 "Resistors_SMD:R_1206_HandSoldering" V 10180 5350 50  0001 C CNN
F 3 "" H 10250 5350 50  0001 C CNN
	1    10250 5350
	0    1    1    0   
$EndComp
$Comp
L GND #PWR75
U 1 1 5B39581C
P 10500 5350
F 0 "#PWR75" H 10500 5100 50  0001 C CNN
F 1 "GND" H 10500 5200 50  0000 C CNN
F 2 "" H 10500 5350 50  0001 C CNN
F 3 "" H 10500 5350 50  0001 C CNN
	1    10500 5350
	1    0    0    -1  
$EndComp
NoConn ~ 9750 5450
Text GLabel 12750 8500 0    60   Input ~ 0
OUT0_D
$Comp
L GND #PWR4
U 1 1 5B39620C
P 13500 8500
F 0 "#PWR4" H 13500 8250 50  0001 C CNN
F 1 "GND" H 13500 8350 50  0000 C CNN
F 2 "" H 13500 8500 50  0001 C CNN
F 3 "" H 13500 8500 50  0001 C CNN
	1    13500 8500
	0    -1   -1   0   
$EndComp
$Comp
L LED D55
U 1 1 5B396212
P 13150 6400
F 0 "D55" H 13150 6500 50  0000 C CNN
F 1 "LED" H 13150 6300 50  0000 C CNN
F 2 "LEDs:LED_1206_HandSoldering" H 13150 6400 50  0001 C CNN
F 3 "" H 13150 6400 50  0001 C CNN
	1    13150 6400
	-1   0    0    1   
$EndComp
Text GLabel 12750 8200 0    60   Input ~ 0
OUT1_D
$Comp
L GND #PWR7
U 1 1 5B396219
P 13500 8200
F 0 "#PWR7" H 13500 7950 50  0001 C CNN
F 1 "GND" H 13500 8050 50  0000 C CNN
F 2 "" H 13500 8200 50  0001 C CNN
F 3 "" H 13500 8200 50  0001 C CNN
	1    13500 8200
	0    -1   -1   0   
$EndComp
$Comp
L LED D53
U 1 1 5B39621F
P 13150 7000
F 0 "D53" H 13150 7100 50  0000 C CNN
F 1 "LED" H 13150 6900 50  0000 C CNN
F 2 "LEDs:LED_1206_HandSoldering" H 13150 7000 50  0001 C CNN
F 3 "" H 13150 7000 50  0001 C CNN
	1    13150 7000
	-1   0    0    1   
$EndComp
Text GLabel 12750 7900 0    60   Input ~ 0
OUT2_D
$Comp
L GND #PWR10
U 1 1 5B396226
P 13500 7900
F 0 "#PWR10" H 13500 7650 50  0001 C CNN
F 1 "GND" H 13500 7750 50  0000 C CNN
F 2 "" H 13500 7900 50  0001 C CNN
F 3 "" H 13500 7900 50  0001 C CNN
	1    13500 7900
	0    -1   -1   0   
$EndComp
$Comp
L LED D54
U 1 1 5B39622C
P 13150 6700
F 0 "D54" H 13150 6800 50  0000 C CNN
F 1 "LED" H 13150 6600 50  0000 C CNN
F 2 "LEDs:LED_1206_HandSoldering" H 13150 6700 50  0001 C CNN
F 3 "" H 13150 6700 50  0001 C CNN
	1    13150 6700
	-1   0    0    1   
$EndComp
Text GLabel 12750 7600 0    60   Input ~ 0
OUT3_D
$Comp
L GND #PWR13
U 1 1 5B396233
P 13500 7600
F 0 "#PWR13" H 13500 7350 50  0001 C CNN
F 1 "GND" H 13500 7450 50  0000 C CNN
F 2 "" H 13500 7600 50  0001 C CNN
F 3 "" H 13500 7600 50  0001 C CNN
	1    13500 7600
	0    -1   -1   0   
$EndComp
$Comp
L LED D52
U 1 1 5B396239
P 13150 7300
F 0 "D52" H 13150 7400 50  0000 C CNN
F 1 "LED" H 13150 7200 50  0000 C CNN
F 2 "LEDs:LED_1206_HandSoldering" H 13150 7300 50  0001 C CNN
F 3 "" H 13150 7300 50  0001 C CNN
	1    13150 7300
	-1   0    0    1   
$EndComp
Text GLabel 12750 7300 0    60   Input ~ 0
OUT4_D
$Comp
L GND #PWR14
U 1 1 5B396240
P 13500 7300
F 0 "#PWR14" H 13500 7050 50  0001 C CNN
F 1 "GND" H 13500 7150 50  0000 C CNN
F 2 "" H 13500 7300 50  0001 C CNN
F 3 "" H 13500 7300 50  0001 C CNN
	1    13500 7300
	0    -1   -1   0   
$EndComp
$Comp
L LED D51
U 1 1 5B396246
P 13150 7600
F 0 "D51" H 13150 7700 50  0000 C CNN
F 1 "LED" H 13150 7500 50  0000 C CNN
F 2 "LEDs:LED_1206_HandSoldering" H 13150 7600 50  0001 C CNN
F 3 "" H 13150 7600 50  0001 C CNN
	1    13150 7600
	-1   0    0    1   
$EndComp
Text GLabel 12750 7000 0    60   Input ~ 0
OUT5_D
$Comp
L GND #PWR17
U 1 1 5B39624D
P 13500 7000
F 0 "#PWR17" H 13500 6750 50  0001 C CNN
F 1 "GND" H 13500 6850 50  0000 C CNN
F 2 "" H 13500 7000 50  0001 C CNN
F 3 "" H 13500 7000 50  0001 C CNN
	1    13500 7000
	0    -1   -1   0   
$EndComp
$Comp
L LED D50
U 1 1 5B396253
P 13150 7900
F 0 "D50" H 13150 8000 50  0000 C CNN
F 1 "LED" H 13150 7800 50  0000 C CNN
F 2 "LEDs:LED_1206_HandSoldering" H 13150 7900 50  0001 C CNN
F 3 "" H 13150 7900 50  0001 C CNN
	1    13150 7900
	-1   0    0    1   
$EndComp
Text GLabel 12750 6700 0    60   Input ~ 0
OUT6_D
$Comp
L GND #PWR21
U 1 1 5B39625A
P 13500 6700
F 0 "#PWR21" H 13500 6450 50  0001 C CNN
F 1 "GND" H 13500 6550 50  0000 C CNN
F 2 "" H 13500 6700 50  0001 C CNN
F 3 "" H 13500 6700 50  0001 C CNN
	1    13500 6700
	0    -1   -1   0   
$EndComp
$Comp
L LED D49
U 1 1 5B396260
P 13150 8200
F 0 "D49" H 13150 8300 50  0000 C CNN
F 1 "LED" H 13150 8100 50  0000 C CNN
F 2 "LEDs:LED_1206_HandSoldering" H 13150 8200 50  0001 C CNN
F 3 "" H 13150 8200 50  0001 C CNN
	1    13150 8200
	-1   0    0    1   
$EndComp
Text GLabel 12750 6400 0    60   Input ~ 0
OUT7_D
$Comp
L GND #PWR24
U 1 1 5B396267
P 13500 6400
F 0 "#PWR24" H 13500 6150 50  0001 C CNN
F 1 "GND" H 13500 6250 50  0000 C CNN
F 2 "" H 13500 6400 50  0001 C CNN
F 3 "" H 13500 6400 50  0001 C CNN
	1    13500 6400
	0    -1   -1   0   
$EndComp
$Comp
L LED D33
U 1 1 5B39626D
P 13150 8500
F 0 "D33" H 13150 8600 50  0000 C CNN
F 1 "LED" H 13150 8400 50  0000 C CNN
F 2 "LEDs:LED_1206_HandSoldering" H 13150 8500 50  0001 C CNN
F 3 "" H 13150 8500 50  0001 C CNN
	1    13150 8500
	-1   0    0    1   
$EndComp
$Comp
L LED D56
U 1 1 5B3966EF
P 13150 6100
F 0 "D56" H 13150 6200 50  0000 C CNN
F 1 "LED" H 13150 6000 50  0000 C CNN
F 2 "LEDs:LED_1206_HandSoldering" H 13150 6100 50  0001 C CNN
F 3 "" H 13150 6100 50  0001 C CNN
	1    13150 6100
	-1   0    0    1   
$EndComp
Text GLabel 12750 6100 0    60   Input ~ 0
OUT8_D
$Comp
L GND #PWR27
U 1 1 5B3966F6
P 13500 6100
F 0 "#PWR27" H 13500 5850 50  0001 C CNN
F 1 "GND" H 13500 5950 50  0000 C CNN
F 2 "" H 13500 6100 50  0001 C CNN
F 3 "" H 13500 6100 50  0001 C CNN
	1    13500 6100
	0    -1   -1   0   
$EndComp
$Comp
L LED D57
U 1 1 5B3966FC
P 13150 5800
F 0 "D57" H 13150 5900 50  0000 C CNN
F 1 "LED" H 13150 5700 50  0000 C CNN
F 2 "LEDs:LED_1206_HandSoldering" H 13150 5800 50  0001 C CNN
F 3 "" H 13150 5800 50  0001 C CNN
	1    13150 5800
	-1   0    0    1   
$EndComp
Text GLabel 12750 5800 0    60   Input ~ 0
OUT9_D
$Comp
L GND #PWR29
U 1 1 5B396703
P 13500 5800
F 0 "#PWR29" H 13500 5550 50  0001 C CNN
F 1 "GND" H 13500 5650 50  0000 C CNN
F 2 "" H 13500 5800 50  0001 C CNN
F 3 "" H 13500 5800 50  0001 C CNN
	1    13500 5800
	0    -1   -1   0   
$EndComp
$Comp
L LED D58
U 1 1 5B396709
P 13150 5500
F 0 "D58" H 13150 5600 50  0000 C CNN
F 1 "LED" H 13150 5400 50  0000 C CNN
F 2 "LEDs:LED_1206_HandSoldering" H 13150 5500 50  0001 C CNN
F 3 "" H 13150 5500 50  0001 C CNN
	1    13150 5500
	-1   0    0    1   
$EndComp
Text GLabel 12750 5500 0    60   Input ~ 0
OUT10_D
$Comp
L GND #PWR30
U 1 1 5B396710
P 13500 5500
F 0 "#PWR30" H 13500 5250 50  0001 C CNN
F 1 "GND" H 13500 5350 50  0000 C CNN
F 2 "" H 13500 5500 50  0001 C CNN
F 3 "" H 13500 5500 50  0001 C CNN
	1    13500 5500
	0    -1   -1   0   
$EndComp
$Comp
L LED D59
U 1 1 5B396716
P 13150 5200
F 0 "D59" H 13150 5300 50  0000 C CNN
F 1 "LED" H 13150 5100 50  0000 C CNN
F 2 "LEDs:LED_1206_HandSoldering" H 13150 5200 50  0001 C CNN
F 3 "" H 13150 5200 50  0001 C CNN
	1    13150 5200
	-1   0    0    1   
$EndComp
Text GLabel 12750 5200 0    60   Input ~ 0
OUT11_D
$Comp
L GND #PWR32
U 1 1 5B39671D
P 13500 5200
F 0 "#PWR32" H 13500 4950 50  0001 C CNN
F 1 "GND" H 13500 5050 50  0000 C CNN
F 2 "" H 13500 5200 50  0001 C CNN
F 3 "" H 13500 5200 50  0001 C CNN
	1    13500 5200
	0    -1   -1   0   
$EndComp
$Comp
L LED D60
U 1 1 5B396723
P 13150 4900
F 0 "D60" H 13150 5000 50  0000 C CNN
F 1 "LED" H 13150 4800 50  0000 C CNN
F 2 "LEDs:LED_1206_HandSoldering" H 13150 4900 50  0001 C CNN
F 3 "" H 13150 4900 50  0001 C CNN
	1    13150 4900
	-1   0    0    1   
$EndComp
Text GLabel 12750 4900 0    60   Input ~ 0
OUT12_D
$Comp
L GND #PWR35
U 1 1 5B39672A
P 13500 4900
F 0 "#PWR35" H 13500 4650 50  0001 C CNN
F 1 "GND" H 13500 4750 50  0000 C CNN
F 2 "" H 13500 4900 50  0001 C CNN
F 3 "" H 13500 4900 50  0001 C CNN
	1    13500 4900
	0    -1   -1   0   
$EndComp
$Comp
L LED D61
U 1 1 5B396730
P 13150 4600
F 0 "D61" H 13150 4700 50  0000 C CNN
F 1 "LED" H 13150 4500 50  0000 C CNN
F 2 "LEDs:LED_1206_HandSoldering" H 13150 4600 50  0001 C CNN
F 3 "" H 13150 4600 50  0001 C CNN
	1    13150 4600
	-1   0    0    1   
$EndComp
Text GLabel 12750 4600 0    60   Input ~ 0
OUT13_D
$Comp
L GND #PWR38
U 1 1 5B396737
P 13500 4600
F 0 "#PWR38" H 13500 4350 50  0001 C CNN
F 1 "GND" H 13500 4450 50  0000 C CNN
F 2 "" H 13500 4600 50  0001 C CNN
F 3 "" H 13500 4600 50  0001 C CNN
	1    13500 4600
	0    -1   -1   0   
$EndComp
$Comp
L LED D63
U 1 1 5B39673D
P 13150 4000
F 0 "D63" H 13150 4100 50  0000 C CNN
F 1 "LED" H 13150 3900 50  0000 C CNN
F 2 "LEDs:LED_1206_HandSoldering" H 13150 4000 50  0001 C CNN
F 3 "" H 13150 4000 50  0001 C CNN
	1    13150 4000
	-1   0    0    1   
$EndComp
Text GLabel 12750 4300 0    60   Input ~ 0
OUT14_D
$Comp
L GND #PWR44
U 1 1 5B396744
P 13500 4000
F 0 "#PWR44" H 13500 3750 50  0001 C CNN
F 1 "GND" H 13500 3850 50  0000 C CNN
F 2 "" H 13500 4000 50  0001 C CNN
F 3 "" H 13500 4000 50  0001 C CNN
	1    13500 4000
	0    -1   -1   0   
$EndComp
$Comp
L LED D62
U 1 1 5B39674A
P 13150 4300
F 0 "D62" H 13150 4400 50  0000 C CNN
F 1 "LED" H 13150 4200 50  0000 C CNN
F 2 "LEDs:LED_1206_HandSoldering" H 13150 4300 50  0001 C CNN
F 3 "" H 13150 4300 50  0001 C CNN
	1    13150 4300
	-1   0    0    1   
$EndComp
Text GLabel 12750 4000 0    60   Input ~ 0
OUT15_D
$Comp
L GND #PWR41
U 1 1 5B396751
P 13500 4300
F 0 "#PWR41" H 13500 4050 50  0001 C CNN
F 1 "GND" H 13500 4150 50  0000 C CNN
F 2 "" H 13500 4300 50  0001 C CNN
F 3 "" H 13500 4300 50  0001 C CNN
	1    13500 4300
	0    -1   -1   0   
$EndComp
Text Label 1750 1200 2    60   ~ 0
sclk
Text Label 1750 1300 2    60   ~ 0
lat
Text Label 2800 1300 0    60   ~ 0
blank
Text Label 5150 1100 2    60   ~ 0
sclk
Text Label 5150 1200 2    60   ~ 0
lat
Text Label 6200 1200 0    60   ~ 0
blank
Text Label 8600 1000 2    60   ~ 0
sclk
Text Label 8600 1100 2    60   ~ 0
lat
Text Label 9650 1100 0    60   ~ 0
blank
Text Label 8700 5450 2    60   ~ 0
sclk
Text Label 8700 5550 2    60   ~ 0
lat
Text Label 9750 5550 0    60   ~ 0
blank
Text Label 2800 1200 0    60   ~ 0
sout1-sin2
Text Label 5150 1000 2    60   ~ 0
sout1-sin2
Text Label 6200 1100 0    60   ~ 0
sout2-sin3
Text Label 8600 900  2    60   ~ 0
sout2-sin3
Text Label 9650 1000 0    60   ~ 0
sout3-sin4
Text Label 8700 5350 2    60   ~ 0
sout3-sin4
$Comp
L +5V #PWR54
U 1 1 5B3A5B98
P 7000 5650
F 0 "#PWR54" H 7000 5500 50  0001 C CNN
F 1 "+5V" H 7000 5790 50  0000 C CNN
F 2 "" H 7000 5650 50  0001 C CNN
F 3 "" H 7000 5650 50  0001 C CNN
	1    7000 5650
	1    0    0    -1  
$EndComp
$Comp
L GND #PWR55
U 1 1 5B3A5C7B
P 7000 6150
F 0 "#PWR55" H 7000 5900 50  0001 C CNN
F 1 "GND" H 7000 6000 50  0000 C CNN
F 2 "" H 7000 6150 50  0001 C CNN
F 3 "" H 7000 6150 50  0001 C CNN
	1    7000 6150
	1    0    0    -1  
$EndComp
Text Label 6550 5950 0    60   ~ 0
sclk
Text Label 6550 5850 0    60   ~ 0
lat
Text Label 6550 5750 0    60   ~ 0
blank
Text Label 1750 1100 2    60   ~ 0
sin1
$Comp
L Conn_01x06 J1
U 1 1 5B3AA8E2
P 6350 5850
F 0 "J1" H 6350 6150 50  0000 C CNN
F 1 "Conn_01x06" V 6500 5800 50  0000 C CNN
F 2 "Pin_Headers:Pin_Header_Straight_1x06_Pitch2.54mm" H 6350 5850 50  0001 C CNN
F 3 "" H 6350 5850 50  0001 C CNN
	1    6350 5850
	-1   0    0    -1  
$EndComp
Text Label 6550 6050 0    60   ~ 0
sin1
$Comp
L C C1
U 1 1 5B3B5395
P 2250 700
F 0 "C1" H 2275 800 50  0000 L CNN
F 1 "C" H 2275 600 50  0000 L CNN
F 2 "Capacitors_SMD:C_1206_HandSoldering" H 2288 550 50  0001 C CNN
F 3 "" H 2250 700 50  0001 C CNN
	1    2250 700 
	0    1    1    0   
$EndComp
$Comp
L C C2
U 1 1 5B3B5739
P 5650 600
F 0 "C2" H 5675 700 50  0000 L CNN
F 1 "C" H 5675 500 50  0000 L CNN
F 2 "Capacitors_SMD:C_1206_HandSoldering" H 5688 450 50  0001 C CNN
F 3 "" H 5650 600 50  0001 C CNN
	1    5650 600 
	0    1    1    0   
$EndComp
$Comp
L C C4
U 1 1 5B3B5AEC
P 8700 600
F 0 "C4" H 8725 700 50  0000 L CNN
F 1 "C" H 8725 500 50  0000 L CNN
F 2 "Capacitors_SMD:C_1206_HandSoldering" H 8738 450 50  0001 C CNN
F 3 "" H 8700 600 50  0001 C CNN
	1    8700 600 
	0    1    1    0   
$EndComp
$Comp
L C C3
U 1 1 5B3B6113
P 8650 5050
F 0 "C3" H 8675 5150 50  0000 L CNN
F 1 "C" H 8675 4950 50  0000 L CNN
F 2 "Capacitors_SMD:C_1206_HandSoldering" H 8688 4900 50  0001 C CNN
F 3 "" H 8650 5050 50  0001 C CNN
	1    8650 5050
	0    1    1    0   
$EndComp
Wire Wire Line
	1500 1400 1750 1400
Wire Wire Line
	1500 1500 1750 1500
Wire Wire Line
	1500 1600 1750 1600
Wire Wire Line
	1500 1700 1750 1700
Wire Wire Line
	1500 1800 1750 1800
Wire Wire Line
	1500 1900 1750 1900
Wire Wire Line
	1500 2000 1750 2000
Wire Wire Line
	1500 2100 1750 2100
Wire Wire Line
	2800 1400 3100 1400
Wire Wire Line
	2800 1500 3100 1500
Wire Wire Line
	2800 1600 3100 1600
Wire Wire Line
	2800 1700 3100 1700
Wire Wire Line
	2800 1800 3100 1800
Wire Wire Line
	2800 1900 3100 1900
Wire Wire Line
	2800 2000 3100 2000
Wire Wire Line
	2800 2100 3100 2100
Wire Wire Line
	1200 7100 1250 7100
Wire Wire Line
	1550 7100 1650 7100
Wire Wire Line
	1200 6800 1250 6800
Wire Wire Line
	1550 6800 1650 6800
Wire Wire Line
	1200 6500 1250 6500
Wire Wire Line
	1550 6500 1650 6500
Wire Wire Line
	1200 6200 1250 6200
Wire Wire Line
	1550 6200 1650 6200
Wire Wire Line
	1200 5900 1250 5900
Wire Wire Line
	1550 5900 1650 5900
Wire Wire Line
	1200 5600 1250 5600
Wire Wire Line
	1550 5600 1650 5600
Wire Wire Line
	1200 5300 1250 5300
Wire Wire Line
	1550 5300 1650 5300
Wire Wire Line
	1200 5000 1250 5000
Wire Wire Line
	1550 5000 1650 5000
Wire Wire Line
	1200 4700 1250 4700
Wire Wire Line
	1550 4700 1650 4700
Wire Wire Line
	1200 4400 1250 4400
Wire Wire Line
	1550 4400 1650 4400
Wire Wire Line
	1200 4100 1250 4100
Wire Wire Line
	1550 4100 1650 4100
Wire Wire Line
	1200 3800 1250 3800
Wire Wire Line
	1550 3800 1650 3800
Wire Wire Line
	1200 3500 1250 3500
Wire Wire Line
	1550 3500 1650 3500
Wire Wire Line
	1200 3200 1250 3200
Wire Wire Line
	1550 3200 1650 3200
Wire Wire Line
	1200 2900 1250 2900
Wire Wire Line
	1550 2900 1650 2900
Wire Wire Line
	1200 2600 1250 2600
Wire Wire Line
	1550 2600 1650 2600
Wire Wire Line
	2800 1100 3350 1100
Wire Wire Line
	3650 1100 3650 1300
Wire Wire Line
	1100 1000 1750 1000
Wire Wire Line
	4900 1300 5150 1300
Wire Wire Line
	4900 1400 5150 1400
Wire Wire Line
	4900 1500 5150 1500
Wire Wire Line
	4900 1600 5150 1600
Wire Wire Line
	4900 1700 5150 1700
Wire Wire Line
	4900 1800 5150 1800
Wire Wire Line
	4900 1900 5150 1900
Wire Wire Line
	4900 2000 5150 2000
Wire Wire Line
	6200 1300 6500 1300
Wire Wire Line
	6200 1400 6500 1400
Wire Wire Line
	6200 1500 6500 1500
Wire Wire Line
	6200 1600 6500 1600
Wire Wire Line
	6200 1700 6500 1700
Wire Wire Line
	6200 1800 6500 1800
Wire Wire Line
	6200 1900 6500 1900
Wire Wire Line
	6200 2000 6500 2000
Wire Wire Line
	4600 2800 4600 3050
Wire Wire Line
	4600 3350 4600 3550
Wire Wire Line
	4900 2800 4900 3050
Wire Wire Line
	4900 3350 4900 3550
Wire Wire Line
	5250 2800 5250 3050
Wire Wire Line
	5250 3350 5250 3550
Wire Wire Line
	5550 2800 5550 3050
Wire Wire Line
	5550 3350 5550 3550
Wire Wire Line
	5900 2800 5900 3050
Wire Wire Line
	5900 3350 5900 3550
Wire Wire Line
	6200 2800 6200 3050
Wire Wire Line
	6200 3350 6200 3550
Wire Wire Line
	6550 2800 6550 3050
Wire Wire Line
	6550 3350 6550 3550
Wire Wire Line
	6850 2800 6850 3050
Wire Wire Line
	6850 3350 6850 3550
Wire Wire Line
	4600 4250 4600 4500
Wire Wire Line
	4600 4800 4600 5000
Wire Wire Line
	4900 4250 4900 4500
Wire Wire Line
	4900 4800 4900 5000
Wire Wire Line
	5250 4250 5250 4500
Wire Wire Line
	5250 4800 5250 5000
Wire Wire Line
	5550 4250 5550 4500
Wire Wire Line
	5550 4800 5550 5000
Wire Wire Line
	5900 4250 5900 4500
Wire Wire Line
	5900 4800 5900 5000
Wire Wire Line
	6200 4250 6200 4500
Wire Wire Line
	6200 4800 6200 5000
Wire Wire Line
	6850 4250 6850 4500
Wire Wire Line
	6850 4800 6850 5000
Wire Wire Line
	6550 4250 6550 4500
Wire Wire Line
	6550 4800 6550 5000
Wire Wire Line
	6200 1000 6850 1000
Wire Wire Line
	7150 1000 7150 1100
Wire Wire Line
	4250 900  5150 900 
Wire Wire Line
	6200 900  6250 900 
Wire Wire Line
	6250 900  6350 900 
Wire Wire Line
	8350 1300 8600 1300
Wire Wire Line
	8350 1400 8600 1400
Wire Wire Line
	8350 1500 8600 1500
Wire Wire Line
	8350 1600 8600 1600
Wire Wire Line
	8350 1700 8600 1700
Wire Wire Line
	8350 1800 8600 1800
Wire Wire Line
	9650 1300 9950 1300
Wire Wire Line
	9650 1400 9950 1400
Wire Wire Line
	9650 1500 9950 1500
Wire Wire Line
	9650 1600 9950 1600
Wire Wire Line
	9650 1700 9950 1700
Wire Wire Line
	9650 1800 9950 1800
Wire Wire Line
	8550 2550 8550 2800
Wire Wire Line
	8550 3100 8550 3300
Wire Wire Line
	8900 2550 8900 2800
Wire Wire Line
	8900 3100 8900 3300
Wire Wire Line
	9200 2550 9200 2800
Wire Wire Line
	9200 3100 9200 3300
Wire Wire Line
	9550 2550 9550 2800
Wire Wire Line
	9550 3100 9550 3300
Wire Wire Line
	9900 2550 9900 2800
Wire Wire Line
	9900 3100 9900 3300
Wire Wire Line
	10250 2550 10250 2800
Wire Wire Line
	10250 3100 10250 3300
Wire Wire Line
	8550 4000 8550 4250
Wire Wire Line
	8250 4550 8250 4750
Wire Wire Line
	8900 4000 8900 4250
Wire Wire Line
	9200 4000 9200 4250
Wire Wire Line
	8900 4550 8900 4750
Wire Wire Line
	9550 4000 9550 4250
Wire Wire Line
	9900 4000 9900 4250
Wire Wire Line
	9550 4550 9550 4750
Wire Wire Line
	10250 4000 10250 4250
Wire Wire Line
	9650 900  10250 900 
Wire Wire Line
	10550 900  10550 950 
Wire Wire Line
	7650 800  8500 800 
Wire Wire Line
	8500 800  8600 800 
Wire Wire Line
	9650 800  9700 800 
Wire Wire Line
	9700 800  9800 800 
Wire Wire Line
	8250 4000 8250 4250
Wire Wire Line
	9650 1900 9950 1900
Wire Wire Line
	10550 4550 10550 4750
Wire Wire Line
	10550 4000 10550 4250
Wire Wire Line
	9650 1200 9950 1200
Wire Wire Line
	8250 3100 8250 3300
Wire Wire Line
	8250 2550 8250 2800
Wire Wire Line
	10250 4550 10250 4750
Wire Wire Line
	9200 4550 9200 4750
Wire Wire Line
	8550 4550 8550 4750
Wire Wire Line
	9900 4550 9900 4750
Wire Wire Line
	8600 1200 8350 1200
Wire Wire Line
	8450 5650 8700 5650
Wire Wire Line
	8450 5750 8700 5750
Wire Wire Line
	8450 5850 8700 5850
Wire Wire Line
	8450 5950 8700 5950
Wire Wire Line
	8450 6050 8700 6050
Wire Wire Line
	8450 6150 8700 6150
Wire Wire Line
	8450 6250 8700 6250
Wire Wire Line
	8450 6350 8700 6350
Wire Wire Line
	9750 5650 10050 5650
Wire Wire Line
	9750 5750 10050 5750
Wire Wire Line
	9750 5850 10050 5850
Wire Wire Line
	9750 5950 10050 5950
Wire Wire Line
	9750 6050 10050 6050
Wire Wire Line
	9750 6150 10050 6150
Wire Wire Line
	9750 6250 10050 6250
Wire Wire Line
	9750 6350 10050 6350
Wire Wire Line
	9750 5350 10100 5350
Wire Wire Line
	10400 5350 10500 5350
Wire Wire Line
	7750 5250 8500 5250
Wire Wire Line
	8500 5250 8700 5250
Wire Wire Line
	9750 5250 9800 5250
Wire Wire Line
	9800 5250 9900 5250
Wire Wire Line
	12750 8500 13000 8500
Wire Wire Line
	13300 8500 13500 8500
Wire Wire Line
	12750 8200 13000 8200
Wire Wire Line
	13300 8200 13500 8200
Wire Wire Line
	12750 7900 13000 7900
Wire Wire Line
	13300 7900 13500 7900
Wire Wire Line
	12750 7600 13000 7600
Wire Wire Line
	13300 7600 13500 7600
Wire Wire Line
	12750 7300 13000 7300
Wire Wire Line
	13300 7300 13500 7300
Wire Wire Line
	12750 7000 13000 7000
Wire Wire Line
	13300 7000 13500 7000
Wire Wire Line
	12750 6700 13000 6700
Wire Wire Line
	13300 6700 13500 6700
Wire Wire Line
	12750 6400 13000 6400
Wire Wire Line
	13300 6400 13500 6400
Wire Wire Line
	12750 6100 13000 6100
Wire Wire Line
	13300 6100 13500 6100
Wire Wire Line
	12750 5800 13000 5800
Wire Wire Line
	13300 5800 13500 5800
Wire Wire Line
	12750 5500 13000 5500
Wire Wire Line
	13300 5500 13500 5500
Wire Wire Line
	12750 5200 13000 5200
Wire Wire Line
	13300 5200 13500 5200
Wire Wire Line
	12750 4900 13000 4900
Wire Wire Line
	13300 4900 13500 4900
Wire Wire Line
	12750 4600 13000 4600
Wire Wire Line
	13300 4600 13500 4600
Wire Wire Line
	12750 4000 13000 4000
Wire Wire Line
	13300 4000 13500 4000
Wire Wire Line
	12750 4300 13000 4300
Wire Wire Line
	13300 4300 13500 4300
Wire Wire Line
	2800 1000 2950 1000
Wire Wire Line
	6550 5650 6650 5650
Wire Wire Line
	6650 5650 7000 5650
Connection ~ 6650 5650
Wire Wire Line
	6550 6150 6650 6150
Wire Wire Line
	6650 6150 7000 6150
Connection ~ 6650 6150
Wire Wire Line
	2400 700  2800 700 
Wire Wire Line
	2800 700  2800 1000
Wire Wire Line
	5500 600  5150 600 
Wire Wire Line
	5150 600  5150 900 
Wire Wire Line
	5800 600  6250 600 
Wire Wire Line
	6250 600  6250 900 
Connection ~ 6250 900 
Wire Wire Line
	8550 600  8500 600 
Wire Wire Line
	8500 600  8500 800 
Connection ~ 8500 800 
Wire Wire Line
	8850 600  9700 600 
Wire Wire Line
	9700 600  9700 800 
Connection ~ 9700 800 
Wire Wire Line
	8500 5050 8500 5250
Connection ~ 8500 5250
Wire Wire Line
	8800 5050 9800 5050
Wire Wire Line
	9800 5050 9800 5250
Connection ~ 9800 5250
Wire Wire Line
	2100 700  1750 700 
Wire Wire Line
	1750 700  1750 1000
$Comp
L R R1
U 1 1 5B34AD16
P 3500 1100
F 0 "R1" V 3580 1100 50  0000 C CNN
F 1 "R" V 3500 1100 50  0000 C CNN
F 2 "Resistors_SMD:R_1206_HandSoldering" V 3430 1100 50  0001 C CNN
F 3 "" H 3500 1100 50  0001 C CNN
	1    3500 1100
	0    1    1    0   
$EndComp
$Sheet
S -5600 950  1300 1250
U 5B3DA66F
F0 "Led-Driver" 60
F1 "leddriver.sch" 60
F2 "3.3V" I L -5600 1050 60 
F3 "GND" I L -5600 1200 60 
F4 "SIN" I L -5600 1350 60 
F5 "LAT" I L -5600 1600 60 
F6 "BLANK" I L -5600 1750 60 
F7 "SOUT" O R -4300 1350 60 
$EndSheet
$EndSCHEMATC
